<?xml version="1.0" encoding="UTF-8" standalone="no" ?>
<gpx xmlns="http://www.topografix.com/GPX/1/1" creator="MapSource 6.16.3" version="1.1" xmlns:xsi="http://www.w3.org/2001/XMLSchema-instance" xsi:schemaLocation="http://www.topografix.com/GPX/1/1 http://www.topografix.com/GPX/1/1/gpx.xsd">

  <metadata>
    <link href="http://www.garmin.com">
      <text>Garmin International</text>
    </link>
    <time>2016-08-06T08:43:56Z</time>
    <bounds maxlat="46.500955112278461" maxlon="8.29137702472508" minlat="46.209315927699208" minlon="7.321115909144282"/>
  </metadata>

  <trk>
    <name>E2</name>
    <trkseg>
      <trkpt lat="46.500955112278461" lon="8.29137702472508"/>
      <trkpt lat="46.500595780089498" lon="8.287319513037801"/>
      <trkpt lat="46.497182166203856" lon="8.28578419983387"/>
      <trkpt lat="46.497002458199859" lon="8.285455210134387"/>
      <trkpt lat="46.495924545451999" lon="8.280739635229111"/>
      <trkpt lat="46.495924545451999" lon="8.280629999935627"/>
      <trkpt lat="46.491702497005463" lon="8.277120077982545"/>
      <trkpt lat="46.488468507304788" lon="8.271198263391852"/>
      <trkpt lat="46.488288883119822" lon="8.271088544279337"/>
      <trkpt lat="46.487300740554929" lon="8.262205822393298"/>
      <trkpt lat="46.486492222175002" lon="8.262425092980266"/>
      <trkpt lat="46.48370741866529" lon="8.259573820978403"/>
      <trkpt lat="46.483617648482323" lon="8.259573820978403"/>
      <trkpt lat="46.478497227653861" lon="8.255187319591641"/>
      <trkpt lat="46.476610796526074" lon="8.251020088791847"/>
      <trkpt lat="46.473287036642432" lon="8.248826796188951"/>
      <trkpt lat="46.468885280191898" lon="8.241369584575295"/>
      <trkpt lat="46.468795426189899" lon="8.241369584575295"/>
      <trkpt lat="46.467268243432045" lon="8.238847386091948"/>
      <trkpt lat="46.466010622680187" lon="8.234570436179638"/>
      <trkpt lat="46.465741144493222" lon="8.234570436179638"/>
      <trkpt lat="46.46187842823565" lon="8.231609528884292"/>
      <trkpt lat="46.459273248910904" lon="8.229306600987911"/>
      <trkpt lat="46.459183478727937" lon="8.229306600987911"/>
      <trkpt lat="46.457207193598151" lon="8.225139370188117"/>
      <trkpt lat="46.456937631592155" lon="8.224810380488634"/>
      <trkpt lat="46.456937631592155" lon="8.222507368773222"/>
      <trkpt lat="46.456398675218225" lon="8.216695189476013"/>
      <trkpt lat="46.455051200464368" lon="8.216695189476013"/>
      <trkpt lat="46.453344393521547" lon="8.211760343983769"/>
      <trkpt lat="46.453254539519548" lon="8.211760343983769"/>
      <trkpt lat="46.448852783069015" lon="8.208909071981907"/>
      <trkpt lat="46.44400192424655" lon="8.203535517677665"/>
      <trkpt lat="46.441486682742834" lon="8.202329194173217"/>
      <trkpt lat="46.438701963052154" lon="8.198710307478905"/>
      <trkpt lat="46.437713820487261" lon="8.195859035477042"/>
      <trkpt lat="46.437534112483263" lon="8.195639681071043"/>
      <trkpt lat="46.435198495164514" lon="8.191691804677248"/>
      <trkpt lat="46.435198495164514" lon="8.188840532675386"/>
      <trkpt lat="46.434030728414655" lon="8.187305219471455"/>
      <trkpt lat="46.433940874412656" lon="8.187305219471455"/>
      <trkpt lat="46.431156070902944" lon="8.1822604034096"/>
      <trkpt lat="46.42621535807848" lon="8.175241900607944"/>
      <trkpt lat="46.421993309631944" lon="8.170416690409184"/>
      <trkpt lat="46.42037627287209" lon="8.168881377205253"/>
      <trkpt lat="46.412560986354947" lon="8.155941059812903"/>
      <trkpt lat="46.41121351160109" lon="8.151773829013109"/>
      <trkpt lat="46.40950670465827" lon="8.14925154671073"/>
      <trkpt lat="46.409326996654272" lon="8.14925154671073"/>
      <trkpt lat="46.407979521900415" lon="8.147167889401317"/>
      <trkpt lat="46.40487595461309" lon="8.144349390640855"/>
      <trkpt lat="46.402926575392485" lon="8.140357676893473"/>
      <trkpt lat="46.403681198135018" lon="8.138975920155644"/>
      <trkpt lat="46.4036182500422" lon="8.138284999877214"/>
      <trkpt lat="46.404310008510947" lon="8.137440606951714"/>
      <trkpt lat="46.401857631281018" lon="8.138592028990388"/>
      <trkpt lat="46.400914331898093" lon="8.137363828718662"/>
      <trkpt lat="46.400914331898093" lon="8.137287050485611"/>
      <trkpt lat="46.399656711146235" lon="8.136672908440232"/>
      <trkpt lat="46.399593846872449" lon="8.136672908440232"/>
      <trkpt lat="46.397204333916306" lon="8.132604416459799"/>
      <trkpt lat="46.395686119794846" lon="8.128897687420249"/>
      <trkpt lat="46.395686119794846" lon="8.128788052126765"/>
      <trkpt lat="46.392991170287132" lon="8.125552972778678"/>
      <trkpt lat="46.391374217346311" lon="8.121221205219626"/>
      <trkpt lat="46.390790333971381" lon="8.121385741978884"/>
      <trkpt lat="46.390790333971381" lon="8.121495377272368"/>
      <trkpt lat="46.390296220779419" lon="8.122153356671333"/>
      <trkpt lat="46.389891961589456" lon="8.121934086084366"/>
      <trkpt lat="46.389847034588456" lon="8.12182436697185"/>
      <trkpt lat="46.388993673026562" lon="8.120234236121178"/>
      <trkpt lat="46.388858892023563" lon="8.120179418474436"/>
      <trkpt lat="46.387736052274704" lon="8.117657136172056"/>
      <trkpt lat="46.387511417269707" lon="8.115189671516419"/>
      <trkpt lat="46.386253796517849" lon="8.112886659801006"/>
      <trkpt lat="46.386253796517849" lon="8.112777024507523"/>
      <trkpt lat="46.384591916576028" lon="8.111296528950334"/>
      <trkpt lat="46.38454707339406" lon="8.111241711303592"/>
      <trkpt lat="46.383019890636206" lon="8.110254742205143"/>
      <trkpt lat="46.381358010694385" lon="8.107513105496764"/>
      <trkpt lat="46.380639346316457" lon="8.105045724660158"/>
      <trkpt lat="46.3792918715626" lon="8.10279761441052"/>
      <trkpt lat="46.379246944561601" lon="8.102742712944746"/>
      <trkpt lat="46.378483437001705" lon="8.101865462958813"/>
      <trkpt lat="46.378438510000706" lon="8.101755743846297"/>
      <trkpt lat="46.377629991620779" lon="8.099288363009691"/>
      <trkpt lat="46.37754013761878" lon="8.099233461543918"/>
      <trkpt lat="46.377091035246849" lon="8.097204705700278"/>
      <trkpt lat="46.377091035246849" lon="8.097533695399761"/>
      <trkpt lat="46.37650715187192" lon="8.10027533210814"/>
      <trkpt lat="46.37646222487092" lon="8.096656361594796"/>
      <trkpt lat="46.378034250810742" lon="8.095669392496347"/>
      <trkpt lat="46.378887612372637" lon="8.094024443998933"/>
      <trkpt lat="46.379022393375635" lon="8.091666698455811"/>
      <trkpt lat="46.379022393375635" lon="8.091611880809069"/>
      <trkpt lat="46.377629991620779" lon="8.089912030845881"/>
      <trkpt lat="46.37754013761878" lon="8.089912030845881"/>
      <trkpt lat="46.376372370868921" lon="8.090021749958396"/>
      <trkpt lat="46.376237589865923" lon="8.090021749958396"/>
      <trkpt lat="46.374979969114065" lon="8.089308869093657"/>
      <trkpt lat="46.375069823116064" lon="8.08936377055943"/>
      <trkpt lat="46.373407943174243" lon="8.085744800046086"/>
      <trkpt lat="46.371835917234421" lon="8.082509553059936"/>
      <trkpt lat="46.371835917234421" lon="8.082454651594162"/>
      <trkpt lat="46.371027398854494" lon="8.079384109005332"/>
      <trkpt lat="46.371611366048455" lon="8.077300451695919"/>
      <trkpt lat="46.371656209230423" lon="8.076368300244212"/>
      <trkpt lat="46.370488442480564" lon="8.07351702824235"/>
      <trkpt lat="46.370443515479565" lon="8.073462210595608"/>
      <trkpt lat="46.369500299915671" lon="8.072365606203675"/>
      <trkpt lat="46.369500299915671" lon="8.068801537156105"/>
      <trkpt lat="46.369410445913672" lon="8.068746719509363"/>
      <trkpt lat="46.367928273975849" lon="8.068198375403881"/>
      <trkpt lat="46.367524014785886" lon="8.067321041598916"/>
      <trkpt lat="46.367344306781888" lon="8.066005082800984"/>
      <trkpt lat="46.365053616464138" lon="8.060357356444001"/>
      <trkpt lat="46.36491883546114" lon="8.060302538797259"/>
      <trkpt lat="46.364155327901244" lon="8.059589741751552"/>
      <trkpt lat="46.361909480765462" lon="8.053613025695086"/>
      <trkpt lat="46.360472235828638" lon="8.053009863942862"/>
      <trkpt lat="46.360427308827639" lon="8.053009863942862"/>
      <trkpt lat="46.359708644449711" lon="8.051145561039448"/>
      <trkpt lat="46.359573863446712" lon="8.051090743392706"/>
      <trkpt lat="46.358765428885818" lon="8.050761753693223"/>
      <trkpt lat="46.357552651315928" lon="8.048787815496326"/>
      <trkpt lat="46.357283173128963" lon="8.047636309638619"/>
      <trkpt lat="46.356250187382102" lon="8.046210631728172"/>
      <trkpt lat="46.356160333380103" lon="8.046046094968915"/>
      <trkpt lat="46.354992566630244" lon="8.044784953817725"/>
      <trkpt lat="46.354992566630244" lon="8.044730136170983"/>
      <trkpt lat="46.354588307440281" lon="8.044072156772018"/>
      <trkpt lat="46.353645091876388" lon="8.04133060388267"/>
      <trkpt lat="46.352567095309496" lon="8.039521118625999"/>
      <trkpt lat="46.349198408424854" lon="8.034860361367464"/>
      <trkpt lat="46.349198408424854" lon="8.034805543720722"/>
      <trkpt lat="46.348075484856963" lon="8.033325131982565"/>
      <trkpt lat="46.34713226929307" lon="8.032063990831375"/>
      <trkpt lat="46.345874648541212" lon="8.029267536476255"/>
      <trkpt lat="46.345829721540213" lon="8.027677405625582"/>
      <trkpt lat="46.345739867538214" lon="8.027732223272324"/>
      <trkpt lat="46.344572100788355" lon="8.026471082121134"/>
      <trkpt lat="46.342595815658569" lon="8.025593748316169"/>
      <trkpt lat="46.338777942582965" lon="8.020549267530441"/>
      <trkpt lat="46.337834727019072" lon="8.018465610221028"/>
      <trkpt lat="46.337160989642143" lon="8.016655957326293"/>
      <trkpt lat="46.337026292458177" lon="8.016601139679551"/>
      <trkpt lat="46.336127920076251" lon="8.015614170581102"/>
      <trkpt lat="46.33567881770432" lon="8.015449633821845"/>
      <trkpt lat="46.335633890703321" lon="8.015339998528361"/>
      <trkpt lat="46.333882156759501" lon="8.013201523572207"/>
      <trkpt lat="46.333837229758501" lon="8.013146705925465"/>
      <trkpt lat="46.332220276817679" lon="8.012433908879757"/>
      <trkpt lat="46.33217534981668" lon="8.012433908879757"/>
      <trkpt lat="46.33042361587286" lon="8.012050101533532"/>
      <trkpt lat="46.329788099974394" lon="8.012269288301468"/>
      <trkpt lat="46.329774605110288" lon="8.012252859771252"/>
      <trkpt lat="46.329491632059216" lon="8.011726392433047"/>
      <trkpt lat="46.32947813719511" lon="8.011709963902831"/>
      <trkpt lat="46.328763999044895" lon="8.009538631886244"/>
      <trkpt lat="46.327173952013254" lon="8.006018400192261"/>
      <trkpt lat="46.327106561511755" lon="8.005952602252364"/>
      <trkpt lat="46.326756281778216" lon="8.004949204623699"/>
      <trkpt lat="46.326675396412611" lon="8.001938927918673"/>
      <trkpt lat="46.32639242336154" lon="8.00052423030138"/>
      <trkpt lat="46.32648671977222" lon="7.999093104153872"/>
      <trkpt lat="46.326985359191895" lon="7.996806520968676"/>
      <trkpt lat="46.326661901548505" lon="7.994306115433574"/>
      <trkpt lat="46.325718685984612" lon="7.991114957258105"/>
      <trkpt lat="46.325327921658754" lon="7.989289043471217"/>
      <trkpt lat="46.325422218069434" lon="7.988762659952045"/>
      <trkpt lat="46.32543571293354" lon="7.988762659952045"/>
      <trkpt lat="46.324681174010038" lon="7.98647616058588"/>
      <trkpt lat="46.324169123545289" lon="7.985472679138184"/>
      <trkpt lat="46.323347110301256" lon="7.98553847707808"/>
      <trkpt lat="46.322838077321649" lon="7.985546188428998"/>
      <trkpt lat="46.322743697091937" lon="7.985638305544853"/>
      <trkpt lat="46.32234756834805" lon="7.985085602849722"/>
      <trkpt lat="46.32181934081018" lon="7.984233498573303"/>
      <trkpt lat="46.320882411673665" lon="7.983519611880183"/>
      <trkpt lat="46.32090755738318" lon="7.983366139233112"/>
      <trkpt lat="46.320303892716765" lon="7.982851741835475"/>
      <trkpt lat="46.320297606289387" lon="7.982851741835475"/>
      <trkpt lat="46.320027206093073" lon="7.982544712722302"/>
      <trkpt lat="46.320014633238316" lon="7.982544712722302"/>
      <trkpt lat="46.319719087332487" lon="7.981876842677593"/>
      <trkpt lat="46.319693941622972" lon="7.981876842677593"/>
      <trkpt lat="46.319410968571901" lon="7.98151608556509"/>
      <trkpt lat="46.317295376211405" lon="7.974952636286616"/>
      <trkpt lat="46.317268470302224" lon="7.9749362077564"/>
      <trkpt lat="46.313872877508402" lon="7.964901812374592"/>
      <trkpt lat="46.312498580664396" lon="7.961381413042545"/>
      <trkpt lat="46.312404284253716" lon="7.961266245692968"/>
      <trkpt lat="46.312377294525504" lon="7.961200447753072"/>
      <trkpt lat="46.311784442514181" lon="7.959506213665009"/>
      <trkpt lat="46.310773836448789" lon="7.955903671681881"/>
      <trkpt lat="46.309911422431469" lon="7.953781709074974"/>
      <trkpt lat="46.309911422431469" lon="7.953765280544758"/>
      <trkpt lat="46.30879302509129" lon="7.95193936675787"/>
      <trkpt lat="46.308119371533394" lon="7.950409417971969"/>
      <trkpt lat="46.306556314229965" lon="7.945342976599932"/>
      <trkpt lat="46.305195344612002" lon="7.941181194037199"/>
      <trkpt lat="46.302284896373749" lon="7.936558658257127"/>
      <trkpt lat="46.302284896373749" lon="7.936525801196694"/>
      <trkpt lat="46.300614047795534" lon="7.933614179491997"/>
      <trkpt lat="46.300425371155143" lon="7.932873973622918"/>
      <trkpt lat="46.299387775361538" lon="7.930390080437064"/>
      <trkpt lat="46.299401437863708" lon="7.929995125159621"/>
      <trkpt lat="46.298902882263064" lon="7.929090466350317"/>
      <trkpt lat="46.298323441296816" lon="7.924649063497782"/>
      <trkpt lat="46.297892276197672" lon="7.918694308027625"/>
      <trkpt lat="46.296692993491888" lon="7.906159507110715"/>
      <trkpt lat="46.297016367316246" lon="7.905748207122088"/>
      <trkpt lat="46.297016367316246" lon="7.905731778591871"/>
      <trkpt lat="46.296787289902568" lon="7.900484204292297"/>
      <trkpt lat="46.296834480017424" lon="7.898099049925804"/>
      <trkpt lat="46.298235850408673" lon="7.894249828532338"/>
      <trkpt lat="46.299017379060388" lon="7.894184030592442"/>
      <trkpt lat="46.301739318296313" lon="7.892078496515751"/>
      <trkpt lat="46.302386065945029" lon="7.883853670209646"/>
      <trkpt lat="46.302359076216817" lon="7.883853670209646"/>
      <trkpt lat="46.302547669038177" lon="7.881155619397759"/>
      <trkpt lat="46.302709355950356" lon="7.873819107189775"/>
      <trkpt lat="46.302844053134322" lon="7.871878026053309"/>
      <trkpt lat="46.303329113870859" lon="7.870265766978264"/>
      <trkpt lat="46.304245423525572" lon="7.867469312623143"/>
      <trkpt lat="46.305512012913823" lon="7.865100586786866"/>
      <trkpt lat="46.306077959015965" lon="7.864607144147158"/>
      <trkpt lat="46.308853793889284" lon="7.863455638289452"/>
      <trkpt lat="46.309473635628819" lon="7.860922375693917"/>
      <trkpt lat="46.309662228450179" lon="7.858224660158157"/>
      <trkpt lat="46.309689218178391" lon="7.854539975523949"/>
      <trkpt lat="46.309689218178391" lon="7.854507034644485"/>
      <trkpt lat="46.309042386710644" lon="7.852335702627897"/>
      <trkpt lat="46.309015480801463" lon="7.852302761748433"/>
      <trkpt lat="46.308719012886286" lon="7.84947345033288"/>
      <trkpt lat="46.308692106977105" lon="7.849440593272448"/>
      <trkpt lat="46.308368649333715" lon="7.844966249540448"/>
      <trkpt lat="46.308476440608501" lon="7.844933392480016"/>
      <trkpt lat="46.308665117248893" lon="7.842071140184999"/>
      <trkpt lat="46.308692106977105" lon="7.84197248518467"/>
      <trkpt lat="46.30915017798543" lon="7.840228797867894"/>
      <trkpt lat="46.309177167713642" lon="7.84019585698843"/>
      <trkpt lat="46.309473635628819" lon="7.838583430275321"/>
      <trkpt lat="46.309446645900607" lon="7.835918571799994"/>
      <trkpt lat="46.309473635628819" lon="7.835885714739561"/>
      <trkpt lat="46.310470746830106" lon="7.83437236212194"/>
      <trkpt lat="46.31036295555532" lon="7.833385309204459"/>
      <trkpt lat="46.310228174552321" lon="7.834043372422457"/>
      <trkpt lat="46.309716124087572" lon="7.834273623302579"/>
      <trkpt lat="46.308638211339712" lon="7.836444955319166"/>
      <trkpt lat="46.308934595435858" lon="7.833582786843181"/>
      <trkpt lat="46.309635322540998" lon="7.833056319504976"/>
      <trkpt lat="46.309284958988428" lon="7.831740360707045"/>
      <trkpt lat="46.309015480801463" lon="7.829832220450044"/>
      <trkpt lat="46.309015480801463" lon="7.829799363389611"/>
      <trkpt lat="46.309042386710644" lon="7.827759543433785"/>
      <trkpt lat="46.309042386710644" lon="7.827726686373353"/>
      <trkpt lat="46.308853793889284" lon="7.82739769667387"/>
      <trkpt lat="46.30809917114675" lon="7.818876821547747"/>
      <trkpt lat="46.307371538132429" lon="7.810684852302074"/>
      <trkpt lat="46.307182861492038" lon="7.803808590397239"/>
      <trkpt lat="46.30720985122025" lon="7.800584491342306"/>
      <trkpt lat="46.308907689526677" lon="7.800288358703256"/>
      <trkpt lat="46.309042386710644" lon="7.796505019068718"/>
      <trkpt lat="46.309042386710644" lon="7.795287715271115"/>
      <trkpt lat="46.309985602274537" lon="7.792293867096305"/>
      <trkpt lat="46.311171390116215" lon="7.789300018921495"/>
      <trkpt lat="46.311521753668785" lon="7.786997091025114"/>
      <trkpt lat="46.311899023130536" lon="7.784069124609232"/>
      <trkpt lat="46.311845127493143" lon="7.7821936737746"/>
      <trkpt lat="46.311952918767929" lon="7.78038427233696"/>
      <trkpt lat="46.311952918767929" lon="7.780351331457496"/>
      <trkpt lat="46.313192602247" lon="7.780877714976668"/>
      <trkpt lat="46.313516059890389" lon="7.781206704676151"/>
      <trkpt lat="46.314324494451284" lon="7.780022341758013"/>
      <trkpt lat="46.314378390088677" lon="7.777916807681322"/>
      <trkpt lat="46.314863534644246" lon="7.776436312124133"/>
      <trkpt lat="46.314890440553427" lon="7.776436312124133"/>
      <trkpt lat="46.315186908468604" lon="7.775613879784942"/>
      <trkpt lat="46.315240804105997" lon="7.774133384227753"/>
      <trkpt lat="46.312761437147856" lon="7.773179272189736"/>
      <trkpt lat="46.313569955527782" lon="7.771139536052942"/>
      <trkpt lat="46.314890356734395" lon="7.767454516142607"/>
      <trkpt lat="46.316130040213466" lon="7.762717064470053"/>
      <trkpt lat="46.316103134304285" lon="7.762717064470053"/>
      <trkpt lat="46.31515983492136" lon="7.753932913765311"/>
      <trkpt lat="46.313893245533109" lon="7.751333937048912"/>
      <trkpt lat="46.314937546849251" lon="7.749155899509788"/>
      <trkpt lat="46.314937546849251" lon="7.749122958630323"/>
      <trkpt lat="46.31498247385025" lon="7.748168846592307"/>
      <trkpt lat="46.315072327852249" lon="7.747105183079839"/>
      <trkpt lat="46.315737096592784" lon="7.745844041928649"/>
      <trkpt lat="46.316249147057533" lon="7.744429344311357"/>
      <trkpt lat="46.316177230328321" lon="7.744385506957769"/>
      <trkpt lat="46.316078407689929" lon="7.743924921378493"/>
      <trkpt lat="46.316078407689929" lon="7.743913941085339"/>
      <trkpt lat="46.31603348068893" lon="7.743529882282019"/>
      <trkpt lat="46.31603348068893" lon="7.743507921695709"/>
      <trkpt lat="46.316249147057533" lon="7.742553809657693"/>
      <trkpt lat="46.315108286216855" lon="7.742268741130829"/>
      <trkpt lat="46.315260920673609" lon="7.740996619686484"/>
      <trkpt lat="46.315269973129034" lon="7.740996619686484"/>
      <trkpt lat="46.315458565950394" lon="7.739932872354984"/>
      <trkpt lat="46.315296879038215" lon="7.739022681489587"/>
      <trkpt lat="46.314946515485644" lon="7.737366752699018"/>
      <trkpt lat="46.314551308751106" lon="7.73634659126401"/>
      <trkpt lat="46.314551308751106" lon="7.736313650384545"/>
      <trkpt lat="46.3145602773875" lon="7.735875025391579"/>
      <trkpt lat="46.314551308751106" lon="7.735875025391579"/>
      <trkpt lat="46.314308736473322" lon="7.73496475070715"/>
      <trkpt lat="46.314290799200535" lon="7.734953854233027"/>
      <trkpt lat="46.314254840835929" lon="7.734208116307855"/>
      <trkpt lat="46.314245872199535" lon="7.734186155721545"/>
      <trkpt lat="46.314102122560143" lon="7.733440417796373"/>
      <trkpt lat="46.314066164195538" lon="7.733407560735941"/>
      <trkpt lat="46.313877571374178" lon="7.733243023976684"/>
      <trkpt lat="46.313507007434964" lon="7.731751631945372"/>
      <trkpt lat="46.312994956970215" lon="7.728362996131182"/>
      <trkpt lat="46.312981462106109" lon="7.728362996131182"/>
      <trkpt lat="46.312792869284749" lon="7.724908562377095"/>
      <trkpt lat="46.312604192644358" lon="7.720944005995989"/>
      <trkpt lat="46.312604192644358" lon="7.720927493646741"/>
      <trkpt lat="46.313089253380895" lon="7.716650627553463"/>
      <trkpt lat="46.312321219593287" lon="7.71426547318697"/>
      <trkpt lat="46.312294313684106" lon="7.714248960837722"/>
      <trkpt lat="46.311970856040716" lon="7.71337715908885"/>
      <trkpt lat="46.312092142179608" lon="7.709708902984858"/>
      <trkpt lat="46.312092142179608" lon="7.709659533575177"/>
      <trkpt lat="46.311741778627038" lon="7.706961818039417"/>
      <trkpt lat="46.311728367581964" lon="7.706912448629737"/>
      <trkpt lat="46.311472300440073" lon="7.706303838640451"/>
      <trkpt lat="46.311957444995642" lon="7.70408296957612"/>
      <trkpt lat="46.311297118663788" lon="7.700480511412025"/>
      <trkpt lat="46.309370286762714" lon="7.700842441990972"/>
      <trkpt lat="46.306933835148811" lon="7.701301602646709"/>
      <trkpt lat="46.304220948368311" lon="7.701718350872397"/>
      <trkpt lat="46.302568037062883" lon="7.702222773805261"/>
      <trkpt lat="46.302478183060884" lon="7.70224473439157"/>
      <trkpt lat="46.302370391786098" lon="7.702595600858331"/>
      <trkpt lat="46.302370391786098" lon="7.70263952203095"/>
      <trkpt lat="46.302334517240524" lon="7.703319378197193"/>
      <trkpt lat="46.302208704873919" lon="7.703494895249605"/>
      <trkpt lat="46.301795477047563" lon="7.703889682888985"/>
      <trkpt lat="46.301382249221206" lon="7.699612732976675"/>
      <trkpt lat="46.300789397209883" lon="7.693910272791982"/>
      <trkpt lat="46.298184217885137" lon="7.669894024729729"/>
      <trkpt lat="46.298168711364269" lon="7.667568884789944"/>
      <trkpt lat="46.297885738313198" lon="7.667239895090461"/>
      <trkpt lat="46.297858748584986" lon="7.667206954210997"/>
      <trkpt lat="46.297535374760628" lon="7.664492810145021"/>
      <trkpt lat="46.297467984259129" lon="7.663209708407521"/>
      <trkpt lat="46.297804852947593" lon="7.661679927259684"/>
      <trkpt lat="46.297818347811699" lon="7.661630557850003"/>
      <trkpt lat="46.298438189551234" lon="7.660775184631348"/>
      <trkpt lat="46.295797135680914" lon="7.655708659440279"/>
      <trkpt lat="46.295743240043521" lon="7.655330384150147"/>
      <trkpt lat="46.295743240043521" lon="7.6553138718009"/>
      <trkpt lat="46.296942522749305" lon="7.654261104762554"/>
      <trkpt lat="46.296268785372376" lon="7.652599727734923"/>
      <trkpt lat="46.296185636892915" lon="7.649353500455618"/>
      <trkpt lat="46.29712893627584" lon="7.648476166650653"/>
      <trkpt lat="46.297398414462805" lon="7.648805156350136"/>
      <trkpt lat="46.297443341463804" lon="7.648805156350136"/>
      <trkpt lat="46.297533111646771" lon="7.648421349003911"/>
      <trkpt lat="46.29941962659359" lon="7.648640619590879"/>
      <trkpt lat="46.301216203719378" lon="7.647434379905462"/>
      <trkpt lat="46.301306057721376" lon="7.647434379905462"/>
      <trkpt lat="46.30400100722909" lon="7.64688603579998"/>
      <trkpt lat="46.304719671607018" lon="7.64584424905479"/>
      <trkpt lat="46.304764598608017" lon="7.64584424905479"/>
      <trkpt lat="46.306381551548839" lon="7.645350722596049"/>
      <trkpt lat="46.309435833245516" lon="7.642006007954478"/>
      <trkpt lat="46.309525687247515" lon="7.642006007954478"/>
      <trkpt lat="46.310918005183339" lon="7.641731835901737"/>
      <trkpt lat="46.311578582972288" lon="7.640031985938549"/>
      <trkpt lat="46.311820484697819" lon="7.639720346778631"/>
      <trkpt lat="46.311820484697819" lon="7.639689669013023"/>
      <trkpt lat="46.311751250177622" lon="7.638968070968986"/>
      <trkpt lat="46.311877062544227" lon="7.638906631618738"/>
      <trkpt lat="46.311914781108499" lon="7.638676380738616"/>
      <trkpt lat="46.311921067535877" lon="7.638676380738616"/>
      <trkpt lat="46.31229205057025" lon="7.637916393578053"/>
      <trkpt lat="46.312923626974225" lon="7.636462217196822"/>
      <trkpt lat="46.312990933656693" lon="7.634323826059699"/>
      <trkpt lat="46.31411612033844" lon="7.63348488137126"/>
      <trkpt lat="46.314062224701047" lon="7.633353285491467"/>
      <trkpt lat="46.314170015975833" lon="7.632333375513554"/>
      <trkpt lat="46.314816763624549" lon="7.632563710212708"/>
      <trkpt lat="46.314897648990154" lon="7.632629508152604"/>
      <trkpt lat="46.315463595092297" lon="7.632662365213037"/>
      <trkpt lat="46.317592598497868" lon="7.631247751414776"/>
      <trkpt lat="46.318670511245728" lon="7.630260698497295"/>
      <trkpt lat="46.318993968889117" lon="7.628385499119759"/>
      <trkpt lat="46.318751396611333" lon="7.627661721780896"/>
      <trkpt lat="46.319290352985263" lon="7.622167551890016"/>
      <trkpt lat="46.320179672911763" lon="7.618844378739595"/>
      <trkpt lat="46.320206662639976" lon="7.618844378739595"/>
      <trkpt lat="46.320799514651299" lon="7.616442712023854"/>
      <trkpt lat="46.320799514651299" lon="7.616344057023525"/>
      <trkpt lat="46.319964090362191" lon="7.61210004799068"/>
      <trkpt lat="46.319856299087405" lon="7.612067107111216"/>
      <trkpt lat="46.319074770435691" lon="7.610619552433491"/>
      <trkpt lat="46.319020874798298" lon="7.610553754493594"/>
      <trkpt lat="46.318131554871798" lon="7.609369391575456"/>
      <trkpt lat="46.317134443670511" lon="7.608777210116386"/>
      <trkpt lat="46.316918777301908" lon="7.606605878099799"/>
      <trkpt lat="46.317727295681834" lon="7.605750504881144"/>
      <trkpt lat="46.318616615608335" lon="7.603743625804782"/>
      <trkpt lat="46.317781191319227" lon="7.601572293788195"/>
      <trkpt lat="46.317080548033118" lon="7.598973233252764"/>
      <trkpt lat="46.31694576703012" lon="7.598874578252435"/>
      <trkpt lat="46.3160833530128" lon="7.598085002973676"/>
      <trkpt lat="46.315409615635872" lon="7.59548569098115"/>
      <trkpt lat="46.315301824361086" lon="7.592590497806668"/>
      <trkpt lat="46.315301824361086" lon="7.592524699866772"/>
      <trkpt lat="46.314951460808516" lon="7.590715298429132"/>
      <trkpt lat="46.314951460808516" lon="7.590649500489235"/>
      <trkpt lat="46.315032346174121" lon="7.590024378150702"/>
      <trkpt lat="46.314331702888012" lon="7.589530935510993"/>
      <trkpt lat="46.31379266269505" lon="7.587063470855355"/>
      <trkpt lat="46.313900453969836" lon="7.584365755319595"/>
      <trkpt lat="46.313280612230301" lon="7.586471289396286"/>
      <trkpt lat="46.313334507867694" lon="7.588346488773823"/>
      <trkpt lat="46.313280612230301" lon="7.584990793839097"/>
      <trkpt lat="46.312849447131157" lon="7.582490472123027"/>
      <trkpt lat="46.313496194779873" lon="7.581404764205217"/>
      <trkpt lat="46.312768561765552" lon="7.57972695864737"/>
      <trkpt lat="46.312930332496762" lon="7.577917473390698"/>
      <trkpt lat="46.313118925318122" lon="7.577061764895916"/>
      <trkpt lat="46.313118925318122" lon="7.577028907835484"/>
      <trkpt lat="46.312418282032013" lon="7.573870522901416"/>
      <trkpt lat="46.311771450564265" lon="7.570350375026465"/>
      <trkpt lat="46.311232494190335" lon="7.569396262988448"/>
      <trkpt lat="46.31115160882473" lon="7.569363405928016"/>
      <trkpt lat="46.309319073334336" lon="7.568968534469605"/>
      <trkpt lat="46.309319073334336" lon="7.568935677409172"/>
      <trkpt lat="46.309049595147371" lon="7.567027537152171"/>
      <trkpt lat="46.307594329118729" lon="7.566369557753205"/>
      <trkpt lat="46.307567339390516" lon="7.566369557753205"/>
      <trkpt lat="46.306979181244969" lon="7.566523365676403"/>
      <trkpt lat="46.306853452697396" lon="7.566523365676403"/>
      <trkpt lat="46.306835515424609" lon="7.566523365676403"/>
      <trkpt lat="46.306260516867042" lon="7.565448638051748"/>
      <trkpt lat="46.306170746684074" lon="7.565448638051748"/>
      <trkpt lat="46.306062955409288" lon="7.564110718667507"/>
      <trkpt lat="46.306026997044683" lon="7.564088758081198"/>
      <trkpt lat="46.30457173101604" lon="7.564044920727611"/>
      <trkpt lat="46.303547630086541" lon="7.56426427513361"/>
      <trkpt lat="46.303529692813754" lon="7.56426427513361"/>
      <trkpt lat="46.302667278796434" lon="7.563277306035161"/>
      <trkpt lat="46.301948614418507" lon="7.563035991042852"/>
      <trkpt lat="46.301625240594149" lon="7.562268376350403"/>
      <trkpt lat="46.301894718781114" lon="7.561588436365128"/>
      <trkpt lat="46.301499512046576" lon="7.560294438153505"/>
      <trkpt lat="46.301768990233541" lon="7.55978993140161"/>
      <trkpt lat="46.301786927506328" lon="7.55978993140161"/>
      <trkpt lat="46.302290009334683" lon="7.559066154062748"/>
      <trkpt lat="46.302146259695292" lon="7.558473972603679"/>
      <trkpt lat="46.302146259695292" lon="7.556368438526988"/>
      <trkpt lat="46.302038468420506" lon="7.555798217654228"/>
      <trkpt lat="46.3020025100559" lon="7.555776257067919"/>
      <trkpt lat="46.301409658044577" lon="7.55498668178916"/>
      <trkpt lat="46.301373699679971" lon="7.554942760616541"/>
      <trkpt lat="46.300637098029256" lon="7.553802318871021"/>
      <trkpt lat="46.299487268552184" lon="7.552223168313503"/>
      <trkpt lat="46.299469331279397" lon="7.552201207727194"/>
      <trkpt lat="46.298553021624684" lon="7.550205308943987"/>
      <trkpt lat="46.298517063260078" lon="7.550095673650503"/>
      <trkpt lat="46.29812621511519" lon="7.549843462184072"/>
      <trkpt lat="46.298575317487121" lon="7.547595351934433"/>
      <trkpt lat="46.297784820199013" lon="7.545906566083431"/>
      <trkpt lat="46.297757914289832" lon="7.545906566083431"/>
      <trkpt lat="46.29721887409687" lon="7.544623464345932"/>
      <trkpt lat="46.296888627111912" lon="7.542667211964726"/>
      <trkpt lat="46.296659549698234" lon="7.541120918467641"/>
      <trkpt lat="46.296632559970021" lon="7.541104489937425"/>
      <trkpt lat="46.296322681009769" lon="7.539755590260029"/>
      <trkpt lat="46.296322681009769" lon="7.539739161729813"/>
      <trkpt lat="46.295864526182413" lon="7.538785049691796"/>
      <trkpt lat="46.295109903439879" lon="7.537995474413037"/>
      <trkpt lat="46.294746128842235" lon="7.537534888833761"/>
      <trkpt lat="46.294732633978128" lon="7.537518460303545"/>
      <trkpt lat="46.294099297374487" lon="7.536778254434466"/>
      <trkpt lat="46.293398654088378" lon="7.537370435893536"/>
      <trkpt lat="46.289949081838131" lon="7.535018138587475"/>
      <trkpt lat="46.289908681064844" lon="7.535018138587475"/>
      <trkpt lat="46.288978960365057" lon="7.535034567117691"/>
      <trkpt lat="46.288951970636845" lon="7.535083936527371"/>
      <trkpt lat="46.288574701175094" lon="7.535363556817174"/>
      <trkpt lat="46.288561206310987" lon="7.535363556817174"/>
      <trkpt lat="46.287624696269631" lon="7.535972166806459"/>
      <trkpt lat="46.286331117153168" lon="7.535840570926666"/>
      <trkpt lat="46.285118423402309" lon="7.536038048565388"/>
      <trkpt lat="46.284682815894485" lon="7.536279279738665"/>
      <trkpt lat="46.284646857529879" lon="7.537441682070494"/>
      <trkpt lat="46.284646857529879" lon="7.537463642656803"/>
      <trkpt lat="46.284521128982306" lon="7.539393743500114"/>
      <trkpt lat="46.28394621424377" lon="7.539591137319803"/>
      <trkpt lat="46.283137695863843" lon="7.540117520838976"/>
      <trkpt lat="46.281412784010172" lon="7.541214125230908"/>
      <trkpt lat="46.281376909464598" lon="7.541214125230908"/>
      <trkpt lat="46.279849726706743" lon="7.541916025802493"/>
      <trkpt lat="46.27979583106935" lon="7.541916025802493"/>
      <trkpt lat="46.279562311246991" lon="7.541674710810185"/>
      <trkpt lat="46.279508415609598" lon="7.541543114930391"/>
      <trkpt lat="46.278987312689424" lon="7.539305984973908"/>
      <trkpt lat="46.277837483212352" lon="7.535160714760423"/>
      <trkpt lat="46.277837483212352" lon="7.535094916820526"/>
      <trkpt lat="46.277064923197031" lon="7.532243644818664"/>
      <trkpt lat="46.275375969707966" lon="7.528559044003487"/>
      <trkpt lat="46.275393906980753" lon="7.528559044003487"/>
      <trkpt lat="46.273615267127752" lon="7.523909267038107"/>
      <trkpt lat="46.271890522912145" lon="7.52097032032907"/>
      <trkpt lat="46.271638981997967" lon="7.519829794764519"/>
      <trkpt lat="46.271620960906148" lon="7.519742036238313"/>
      <trkpt lat="46.270992150530219" lon="7.518162885680795"/>
      <trkpt lat="46.270956275984645" lon="7.518141008913517"/>
      <trkpt lat="46.269878279417753" lon="7.515684524551034"/>
      <trkpt lat="46.268728198483586" lon="7.512350790202618"/>
      <trkpt lat="46.268117325380445" lon="7.511012870818377"/>
      <trkpt lat="46.267883805558085" lon="7.508863499388099"/>
      <trkpt lat="46.267632264643908" lon="7.506933398544788"/>
      <trkpt lat="46.267111245542765" lon="7.503117034211755"/>
      <trkpt lat="46.267075287178159" lon="7.503029359504581"/>
      <trkpt lat="46.266428539529443" lon="7.500024531036615"/>
      <trkpt lat="46.266428539529443" lon="7.500002654269338"/>
      <trkpt lat="46.266105165705085" lon="7.497568214312196"/>
      <trkpt lat="46.265925457701087" lon="7.493247427046299"/>
      <trkpt lat="46.265943394973874" lon="7.493247427046299"/>
      <trkpt lat="46.265386501327157" lon="7.490878701210022"/>
      <trkpt lat="46.264416296035051" lon="7.488970560953021"/>
      <trkpt lat="46.262619635090232" lon="7.487347489222884"/>
      <trkpt lat="46.261721346527338" lon="7.485899934545159"/>
      <trkpt lat="46.260858932510018" lon="7.483925996348262"/>
      <trkpt lat="46.260697161778808" lon="7.482215417549014"/>
      <trkpt lat="46.260715099051595" lon="7.482237294316292"/>
      <trkpt lat="46.260158121585846" lon="7.477587601169944"/>
      <trkpt lat="46.259637102484703" lon="7.475679377093911"/>
      <trkpt lat="46.258469335734844" lon="7.472959784790874"/>
      <trkpt lat="46.257804566994309" lon="7.470854166895151"/>
      <trkpt lat="46.257207188755274" lon="7.467673905193806"/>
      <trkpt lat="46.256317952647805" lon="7.464910224080086"/>
      <trkpt lat="46.255266945809126" lon="7.46056747622788"/>
      <trkpt lat="46.254485417157412" lon="7.456290610134602"/>
      <trkpt lat="46.253703888505697" lon="7.451026691123843"/>
      <trkpt lat="46.253676898777485" lon="7.451026691123843"/>
      <trkpt lat="46.251520989462733" lon="7.447243351489306"/>
      <trkpt lat="46.25146709382534" lon="7.447243351489306"/>
      <trkpt lat="46.24847567640245" lon="7.443558583036065"/>
      <trkpt lat="46.248394791036844" lon="7.443492785096169"/>
      <trkpt lat="46.246750932186842" lon="7.441716240718961"/>
      <trkpt lat="46.246750932186842" lon="7.441683383658528"/>
      <trkpt lat="46.246238881722093" lon="7.439182978123426"/>
      <trkpt lat="46.246157996356487" lon="7.439051382243633"/>
      <trkpt lat="46.245942413806915" lon="7.437406433746219"/>
      <trkpt lat="46.245753904804587" lon="7.43428073823452"/>
      <trkpt lat="46.244541211053729" lon="7.432076465338469"/>
      <trkpt lat="46.24437952414155" lon="7.431846130639315"/>
      <trkpt lat="46.243463214486837" lon="7.429839335381985"/>
      <trkpt lat="46.242250520735979" lon="7.426220364868641"/>
      <trkpt lat="46.242250520735979" lon="7.426121709868312"/>
      <trkpt lat="46.241495897993445" lon="7.424081973731518"/>
      <trkpt lat="46.241495897993445" lon="7.42411483079195"/>
      <trkpt lat="46.240822160616517" lon="7.422469882294536"/>
      <trkpt lat="46.240040548145771" lon="7.421943498775363"/>
      <trkpt lat="46.240040548145771" lon="7.421910641714931"/>
      <trkpt lat="46.238746969029307" lon="7.419476034119725"/>
      <trkpt lat="46.238477490842342" lon="7.417173106223345"/>
      <trkpt lat="46.238450584933162" lon="7.417173106223345"/>
      <trkpt lat="46.238288898020983" lon="7.415297823026776"/>
      <trkpt lat="46.238288898020983" lon="7.415264965966344"/>
      <trkpt lat="46.237426484003663" lon="7.411250956356525"/>
      <trkpt lat="46.237237807363272" lon="7.407368877902627"/>
      <trkpt lat="46.237157005816698" lon="7.404901413246989"/>
      <trkpt lat="46.237157005816698" lon="7.404835615307093"/>
      <trkpt lat="46.237103026360273" lon="7.402763022109866"/>
      <trkpt lat="46.236132904887199" lon="7.399374386295676"/>
      <trkpt lat="46.236052019521594" lon="7.39930858835578"/>
      <trkpt lat="46.234030807390809" lon="7.395590962842107"/>
      <trkpt lat="46.233923016116023" lon="7.395590962842107"/>
      <trkpt lat="46.232737228274345" lon="7.392958626151085"/>
      <trkpt lat="46.232629436999559" lon="7.392761232331395"/>
      <trkpt lat="46.232548635452986" lon="7.392662493512034"/>
      <trkpt lat="46.231551440432668" lon="7.390227969735861"/>
      <trkpt lat="46.231551440432668" lon="7.390162171795964"/>
      <trkpt lat="46.230769911780953" lon="7.386609083041549"/>
      <trkpt lat="46.230823807418346" lon="7.385457577183843"/>
      <trkpt lat="46.230796733871102" lon="7.382003143429756"/>
      <trkpt lat="46.230877535417676" lon="7.379568619653583"/>
      <trkpt lat="46.230284683406353" lon="7.376706367358565"/>
      <trkpt lat="46.229071905836463" lon="7.374896965920925"/>
      <trkpt lat="46.22901801019907" lon="7.374864025041461"/>
      <trkpt lat="46.227859212085605" lon="7.374206045642495"/>
      <trkpt lat="46.225819056853652" lon="7.373138861730695"/>
      <trkpt lat="46.224542241543531" lon="7.372406199574471"/>
      <trkpt lat="46.224542241543531" lon="7.372373342514038"/>
      <trkpt lat="46.222278457134962" lon="7.366977827623487"/>
      <trkpt lat="46.219556601718068" lon="7.359279468655586"/>
      <trkpt lat="46.219556601718068" lon="7.359246527776122"/>
      <trkpt lat="46.21802045032382" lon="7.354278741404414"/>
      <trkpt lat="46.217104140669107" lon="7.352173207327724"/>
      <trkpt lat="46.217050245031714" lon="7.352074468508363"/>
      <trkpt lat="46.216646069660783" lon="7.351284893229604"/>
      <trkpt lat="46.214436264708638" lon="7.343849306926131"/>
      <trkpt lat="46.211956897750497" lon="7.337927408516407"/>
      <trkpt lat="46.209935769438744" lon="7.331676604226232"/>
      <trkpt lat="46.209315927699208" lon="7.327860239893198"/>
      <trkpt lat="46.209315927699208" lon="7.327827382832766"/>
      <trkpt lat="46.209827894344926" lon="7.321115909144282"/>
    </trkseg>
  </trk>

</gpx>
