<?xml version="1.0" encoding="UTF-8" standalone="no" ?>
<gpx xmlns="http://www.topografix.com/GPX/1/1" creator="MapSource 6.16.3" version="1.1" xmlns:xsi="http://www.w3.org/2001/XMLSchema-instance" xsi:schemaLocation="http://www.topografix.com/GPX/1/1 http://www.topografix.com/GPX/1/1/gpx.xsd">

  <metadata>
    <link href="http://www.garmin.com">
      <text>Garmin International</text>
    </link>
    <time>2016-08-06T11:10:30Z</time>
    <bounds maxlat="46.218756213784218" maxlon="6.165880691260099" minlat="45.618509603664279" minlon="6.073981672525406"/>
  </metadata>

  <trk>
    <name>E8</name>
    <trkseg>
      <trkpt lat="45.618509603664279" lon="6.144298799335957"/>
      <trkpt lat="45.623477222397923" lon="6.147599676623941"/>
      <trkpt lat="45.626684222370386" lon="6.152128838002682"/>
      <trkpt lat="45.633556377142668" lon="6.157984854653478"/>
      <trkpt lat="45.647031040862203" lon="6.165880691260099"/>
      <trkpt lat="45.651881983503699" lon="6.165880691260099"/>
      <trkpt lat="45.659158313646913" lon="6.162919700145721"/>
      <trkpt lat="45.667377943173051" lon="6.156175369396806"/>
      <trkpt lat="45.670611849054694" lon="6.144989635795355"/>
      <trkpt lat="45.670746630057693" lon="6.144989635795355"/>
      <trkpt lat="45.675058532506227" lon="6.142193265259266"/>
      <trkpt lat="45.676001748070121" lon="6.144660646095872"/>
      <trkpt lat="45.676136529073119" lon="6.144989635795355"/>
      <trkpt lat="45.680044172331691" lon="6.141864275559783"/>
      <trkpt lat="45.681526260450482" lon="6.13725833594799"/>
      <trkpt lat="45.684086428955197" lon="6.137093883007765"/>
      <trkpt lat="45.691767018288374" lon="6.130678541958332"/>
      <trkpt lat="45.692413849756122" lon="6.12817813642323"/>
      <trkpt lat="45.695620849728584" lon="6.126489266753197"/>
      <trkpt lat="45.69612393155694" lon="6.124723702669144"/>
      <trkpt lat="45.696186795830727" lon="6.124723702669144"/>
      <trkpt lat="45.697633093222976" lon="6.124723702669144"/>
      <trkpt lat="45.69925457239151" lon="6.123648975044489"/>
      <trkpt lat="45.699703674763441" lon="6.123758694157004"/>
      <trkpt lat="45.700332568958402" lon="6.123868329450488"/>
      <trkpt lat="45.702668186277151" lon="6.121565401554108"/>
      <trkpt lat="45.708776665851474" lon="6.115753222256899"/>
      <trkpt lat="45.709675038233399" lon="6.115095242857933"/>
      <trkpt lat="45.710393702611327" lon="6.11476625315845"/>
      <trkpt lat="45.713897086679935" lon="6.113340575248003"/>
      <trkpt lat="45.71540180593729" lon="6.109392698854208"/>
      <trkpt lat="45.714054331183434" lon="6.109666870906949"/>
      <trkpt lat="45.714054331183434" lon="6.109557151794434"/>
      <trkpt lat="45.713380593806505" lon="6.107912203297019"/>
      <trkpt lat="45.713380593806505" lon="6.107857385650277"/>
      <trkpt lat="45.714144101366401" lon="6.105993082746863"/>
      <trkpt lat="45.715895835310221" lon="6.10692523419857"/>
      <trkpt lat="45.715895835310221" lon="6.107034869492054"/>
      <trkpt lat="45.71647971868515" lon="6.107309041544795"/>
      <trkpt lat="45.721465358510613" lon="6.105225468054414"/>
      <trkpt lat="45.721375588327646" lon="6.105006113648415"/>
      <trkpt lat="45.721330661326647" lon="6.103470800444484"/>
      <trkpt lat="45.721375588327646" lon="6.103525618091226"/>
      <trkpt lat="45.722049325704575" lon="6.104238498955965"/>
      <trkpt lat="45.721824690699577" lon="6.102922540158033"/>
      <trkpt lat="45.721824690699577" lon="6.102758003398776"/>
      <trkpt lat="45.722633209079504" lon="6.102209659293294"/>
      <trkpt lat="45.722543355077505" lon="6.103744972497225"/>
      <trkpt lat="45.722902687266469" lon="6.104512671008706"/>
      <trkpt lat="45.725417928770185" lon="6.105773728340864"/>
      <trkpt lat="45.728562064468861" lon="6.105499640107155"/>
      <trkpt lat="45.728517137467861" lon="6.105554457753897"/>
      <trkpt lat="45.730655109509826" lon="6.108603123575449"/>
      <trkpt lat="45.733673432841897" lon="6.110829273238778"/>
      <trkpt lat="45.735119730234146" lon="6.113285757601261"/>
      <trkpt lat="45.735245542600751" lon="6.113285757601261"/>
      <trkpt lat="45.73688043281436" lon="6.112901950255036"/>
      <trkpt lat="45.737006245180964" lon="6.112901950255036"/>
      <trkpt lat="45.738263865932822" lon="6.110752495005727"/>
      <trkpt lat="45.739207081496716" lon="6.112594837322831"/>
      <trkpt lat="45.741219324991107" lon="6.112748393788934"/>
      <trkpt lat="45.743105756118894" lon="6.114590736106038"/>
      <trkpt lat="45.748639404773712" lon="6.114590736106038"/>
      <trkpt lat="45.751469302922487" lon="6.114821070805192"/>
      <trkpt lat="45.75159503147006" lon="6.114821070805192"/>
      <trkpt lat="45.756751326844096" lon="6.117584584280849"/>
      <trkpt lat="45.75914092361927" lon="6.118505755439401"/>
      <trkpt lat="45.763668408617377" lon="6.122497553005815"/>
      <trkpt lat="45.76379413716495" lon="6.122574331238866"/>
      <trkpt lat="45.764045678079128" lon="6.124263117089868"/>
      <trkpt lat="45.767126865684986" lon="6.127256965264678"/>
      <trkpt lat="45.76869897544384" lon="6.127256965264678"/>
      <trkpt lat="45.768761839717627" lon="6.127256965264678"/>
      <trkpt lat="45.770019460469484" lon="6.128485165536404"/>
      <trkpt lat="45.770459678024054" lon="6.130250813439488"/>
      <trkpt lat="45.773289324715734" lon="6.132937548682094"/>
      <trkpt lat="45.774106811732054" lon="6.13263051956892"/>
      <trkpt lat="45.774924298748374" lon="6.132783992215991"/>
      <trkpt lat="45.778760109096766" lon="6.132860770449042"/>
      <trkpt lat="45.77989200130105" lon="6.131018428131938"/>
      <trkpt lat="45.779954865574837" lon="6.131018428131938"/>
      <trkpt lat="45.781652703881264" lon="6.13193959929049"/>
      <trkpt lat="45.785111328586936" lon="6.132553741335869"/>
      <trkpt lat="45.785991679877043" lon="6.133781941607595"/>
      <trkpt lat="45.786306085065007" lon="6.133935498073697"/>
      <trkpt lat="45.78869559802115" lon="6.133551690727472"/>
      <trkpt lat="45.789135815575719" lon="6.135317254811525"/>
      <trkpt lat="45.790833570063114" lon="6.135854618623853"/>
      <trkpt lat="45.79133665189147" lon="6.135010225698352"/>
      <trkpt lat="45.793663300573826" lon="6.136852568015456"/>
      <trkpt lat="45.793726164847612" lon="6.136852568015456"/>
      <trkpt lat="45.795486867427826" lon="6.136315204203129"/>
      <trkpt lat="45.795675544068217" lon="6.13639198243618"/>
      <trkpt lat="45.796304354444146" lon="6.136929346248508"/>
      <trkpt lat="45.797310434281826" lon="6.137313153594732"/>
      <trkpt lat="45.797813516110182" lon="6.13715959712863"/>
      <trkpt lat="45.797813516110182" lon="6.137082818895578"/>
      <trkpt lat="45.798127921298146" lon="6.13785051740706"/>
      <trkpt lat="45.798190785571933" lon="6.13785051740706"/>
      <trkpt lat="45.798631003126502" lon="6.137313153594732"/>
      <trkpt lat="45.799385542050004" lon="6.138157546520233"/>
      <trkpt lat="45.800580298528075" lon="6.13785051740706"/>
      <trkpt lat="45.801209108904004" lon="6.138234324753285"/>
      <trkpt lat="45.802655406296253" lon="6.138234324753285"/>
      <trkpt lat="45.804478973150253" lon="6.135470811277628"/>
      <trkpt lat="45.807182975113392" lon="6.135240476578474"/>
      <trkpt lat="45.808817865327001" lon="6.13639198243618"/>
      <trkpt lat="45.813282653689384" lon="6.13715959712863"/>
      <trkpt lat="45.813408382236958" lon="6.13785051740706"/>
      <trkpt lat="45.8157978951931" lon="6.137313153594732"/>
      <trkpt lat="45.81743286922574" lon="6.136161647737026"/>
      <trkpt lat="45.81887916661799" lon="6.13339813426137"/>
      <trkpt lat="45.819633705541492" lon="6.133935498073697"/>
      <trkpt lat="45.820577004924417" lon="6.133858719840646"/>
      <trkpt lat="45.820765597745776" lon="6.133858719840646"/>
      <trkpt lat="45.82233770750463" lon="6.136699011549354"/>
      <trkpt lat="45.823846869170666" lon="6.136699011549354"/>
      <trkpt lat="45.823909733444452" lon="6.138080768287182"/>
      <trkpt lat="45.823972597718239" lon="6.138157546520233"/>
      <trkpt lat="45.825544623658061" lon="6.140767587348819"/>
      <trkpt lat="45.825733300298452" lon="6.142072565853596"/>
      <trkpt lat="45.825796164572239" lon="6.142072565853596"/>
      <trkpt lat="45.828500082716346" lon="6.141995787620544"/>
      <trkpt lat="45.829254705458879" lon="6.14092105999589"/>
      <trkpt lat="45.829317569732666" lon="6.140767587348819"/>
      <trkpt lat="45.830323649570346" lon="6.141304951161146"/>
      <trkpt lat="45.8318957593292" lon="6.140690809115768"/>
      <trkpt lat="45.831958623602986" lon="6.140690809115768"/>
      <trkpt lat="45.834096595644951" lon="6.142149344086647"/>
      <trkpt lat="45.836108839139342" lon="6.141919009387493"/>
      <trkpt lat="45.837806677445769" lon="6.140614030882716"/>
      <trkpt lat="45.842774463817477" lon="6.139846416190267"/>
      <trkpt lat="45.842711515724659" lon="6.139692859724164"/>
      <trkpt lat="45.841642571613193" lon="6.137620182707906"/>
      <trkpt lat="45.843466138467193" lon="6.138311102986336"/>
      <trkpt lat="45.849502785131335" lon="6.138234324753285"/>
      <trkpt lat="45.850508948788047" lon="6.13715959712863"/>
      <trkpt lat="45.850760489702225" lon="6.137313153594732"/>
      <trkpt lat="45.851200623437762" lon="6.13785051740706"/>
      <trkpt lat="45.857551759108901" lon="6.138618132099509"/>
      <trkpt lat="45.858243433758616" lon="6.138234324753285"/>
      <trkpt lat="45.860381489619613" lon="6.138234324753285"/>
      <trkpt lat="45.862708138301969" lon="6.140767587348819"/>
      <trkpt lat="45.865915138274431" lon="6.139692859724164"/>
      <trkpt lat="45.873308228328824" lon="6.141535202041268"/>
      <trkpt lat="45.883054956793785" lon="6.141995787620544"/>
      <trkpt lat="45.883306497707963" lon="6.142149344086647"/>
      <trkpt lat="45.887330984696746" lon="6.143070515245199"/>
      <trkpt lat="45.889909090474248" lon="6.143147293478251"/>
      <trkpt lat="45.890663713216782" lon="6.14092105999589"/>
      <trkpt lat="45.893116258084774" lon="6.136084869503975"/>
      <trkpt lat="45.895442822948098" lon="6.133014326915145"/>
      <trkpt lat="45.89726647362113" lon="6.131325457245112"/>
      <trkpt lat="45.897968206554651" lon="6.130557842552662"/>
      <trkpt lat="45.898013133555651" lon="6.128967711701989"/>
      <trkpt lat="45.898911422118545" lon="6.128912894055247"/>
      <trkpt lat="45.901067415252328" lon="6.127377580851317"/>
      <trkpt lat="45.901067415252328" lon="6.127432398498058"/>
      <trkpt lat="45.901965703815222" lon="6.130448207259178"/>
      <trkpt lat="45.902729295194149" lon="6.134012276306748"/>
      <trkpt lat="45.903133554384112" lon="6.134450901299715"/>
      <trkpt lat="45.903358105570078" lon="6.134889610111713"/>
      <trkpt lat="45.905109839513898" lon="6.142511190846562"/>
      <trkpt lat="45.905154766514897" lon="6.142620909959078"/>
      <trkpt lat="45.90726574882865" lon="6.140427617356181"/>
      <trkpt lat="45.910814143717289" lon="6.137356990948319"/>
      <trkpt lat="45.912386169657111" lon="6.135766860097647"/>
      <trkpt lat="45.912431096658111" lon="6.135602407157421"/>
      <trkpt lat="45.919842123985291" lon="6.131654446944594"/>
      <trkpt lat="45.92074946500361" lon="6.132915671914816"/>
      <trkpt lat="45.921504003927112" lon="6.133639449253678"/>
      <trkpt lat="45.922150835394859" lon="6.135054063051939"/>
      <trkpt lat="45.922204731032252" lon="6.135119860991836"/>
      <trkpt lat="45.923336623236537" lon="6.136666154488921"/>
      <trkpt lat="45.924845701083541" lon="6.13446188159287"/>
      <trkpt lat="45.925950687378645" lon="6.132290549576283"/>
      <trkpt lat="45.926974704489112" lon="6.130579803138971"/>
      <trkpt lat="45.927271172404289" lon="6.129625691100955"/>
      <trkpt lat="45.927271172404289" lon="6.129527036100626"/>
      <trkpt lat="45.927756316959858" lon="6.127947885543108"/>
      <trkpt lat="45.927756316959858" lon="6.127914944663644"/>
      <trkpt lat="45.927702421322465" lon="6.127125369384885"/>
      <trkpt lat="45.92764844186604" lon="6.127125369384885"/>
      <trkpt lat="45.927244266495109" lon="6.126598985865712"/>
      <trkpt lat="45.927540650591254" lon="6.126138400286436"/>
      <trkpt lat="45.928322179242969" lon="6.125710671767592"/>
      <trkpt lat="45.92940017580986" lon="6.124888239428401"/>
      <trkpt lat="45.93037448823452" lon="6.124207880347967"/>
      <trkpt lat="45.93224298208952" lon="6.12762937322259"/>
      <trkpt lat="45.933356853201985" lon="6.128177717328072"/>
      <trkpt lat="45.934327058494091" lon="6.127322344109416"/>
      <trkpt lat="45.934973889961839" lon="6.12666436471045"/>
      <trkpt lat="45.935117555782199" lon="6.126510808244348"/>
      <trkpt lat="45.93527932651341" lon="6.125918626785278"/>
      <trkpt lat="45.93527932651341" lon="6.125896666198969"/>
      <trkpt lat="45.93542299233377" lon="6.125611597672105"/>
      <trkpt lat="45.935458950698376" lon="6.125611597672105"/>
      <trkpt lat="45.936087761074305" lon="6.125589637085795"/>
      <trkpt lat="45.936393197625875" lon="6.125721232965589"/>
      <trkpt lat="45.937201716005802" lon="6.124624544754624"/>
      <trkpt lat="45.937668923288584" lon="6.124054323881865"/>
      <trkpt lat="45.937902443110943" lon="6.123944688588381"/>
      <trkpt lat="45.939447730779648" lon="6.123067354783416"/>
      <trkpt lat="45.94013043679297" lon="6.122650606557727"/>
      <trkpt lat="45.940705351531506" lon="6.122650606557727"/>
      <trkpt lat="45.9406693931669" lon="6.122650606557727"/>
      <trkpt lat="45.942879281938076" lon="6.123264748603106"/>
      <trkpt lat="45.94370573759079" lon="6.1231769900769"/>
      <trkpt lat="45.943687716498971" lon="6.123133152723312"/>
      <trkpt lat="45.944460276514292" lon="6.121400445699692"/>
      <trkpt lat="45.944783734157681" lon="6.120917983353138"/>
      <trkpt lat="45.945771876722574" lon="6.120567033067346"/>
      <trkpt lat="45.947047434747219" lon="6.121115377172828"/>
      <trkpt lat="45.950982319191098" lon="6.122672567144036"/>
      <trkpt lat="45.952743021771312" lon="6.122343577444553"/>
      <trkpt lat="45.954503724351525" lon="6.122124223038554"/>
      <trkpt lat="45.954539598897099" lon="6.122124223038554"/>
      <trkpt lat="45.955024743452668" lon="6.123264748603106"/>
      <trkpt lat="45.955042680725455" lon="6.123286709189415"/>
      <trkpt lat="45.954413870349526" lon="6.125940587371588"/>
      <trkpt lat="45.955132534727454" lon="6.126774000003934"/>
      <trkpt lat="45.955168409273028" lon="6.126905595883727"/>
      <trkpt lat="45.958137363195419" lon="6.125830868259072"/>
      <trkpt lat="45.959978951141238" lon="6.127530718222261"/>
      <trkpt lat="45.959035735577345" lon="6.128517687320709"/>
      <trkpt lat="45.958002666011453" lon="6.131423776969314"/>
      <trkpt lat="45.957912812009454" lon="6.131588229909539"/>
      <trkpt lat="45.958406841382384" lon="6.132739735767245"/>
      <trkpt lat="45.958496695384383" lon="6.132904188707471"/>
      <trkpt lat="45.960607761517167" lon="6.131917219609022"/>
      <trkpt lat="45.960697615519166" lon="6.131917219609022"/>
      <trkpt lat="45.964380707591772" lon="6.131752766668797"/>
      <trkpt lat="45.973363760858774" lon="6.132355928421021"/>
      <trkpt lat="45.97534004598856" lon="6.132520381361246"/>
      <trkpt lat="45.981942638754845" lon="6.130601260811091"/>
      <trkpt lat="45.982930865138769" lon="6.130162635818124"/>
      <trkpt lat="45.985535960644484" lon="6.129340119659901"/>
      <trkpt lat="45.985580887645483" lon="6.129340119659901"/>
      <trkpt lat="45.987646942958236" lon="6.128901494666934"/>
      <trkpt lat="45.990701224654913" lon="6.129669109359384"/>
      <trkpt lat="45.991779221221805" lon="6.12906594760716"/>
      <trkpt lat="45.992273334413767" lon="6.128024160861969"/>
      <trkpt lat="45.99326147697866" lon="6.125940587371588"/>
      <trkpt lat="45.99433938972652" lon="6.125008435919881"/>
      <trkpt lat="45.995911415666342" lon="6.125063253566623"/>
      <trkpt lat="45.995866488665342" lon="6.125063253566623"/>
      <trkpt lat="45.99892077036202" lon="6.123089315369725"/>
      <trkpt lat="46.001525949686766" lon="6.121554002165794"/>
      <trkpt lat="46.007185326889157" lon="6.117989933118224"/>
      <trkpt lat="46.009161612018943" lon="6.114864489063621"/>
      <trkpt lat="46.010014973580837" lon="6.112671196460724"/>
      <trkpt lat="46.010059900581837" lon="6.11256156116724"/>
      <trkpt lat="46.013698065653443" lon="6.111903581768274"/>
      <trkpt lat="46.014686208218336" lon="6.110861795023084"/>
      <trkpt lat="46.016303161159158" lon="6.10367875546217"/>
      <trkpt lat="46.019312515854836" lon="6.103020776063204"/>
      <trkpt lat="46.021064249798656" lon="6.103185229003429"/>
      <trkpt lat="46.022636275738478" lon="6.102582067251205"/>
      <trkpt lat="46.024657487869263" lon="6.101759634912014"/>
      <trkpt lat="46.026004962623119" lon="6.10066294670105"/>
      <trkpt lat="46.026049889624119" lon="6.100608129054308"/>
      <trkpt lat="46.027442291378975" lon="6.100717848166823"/>
      <trkpt lat="46.02771176956594" lon="6.105323703959584"/>
      <trkpt lat="46.028160871937871" lon="6.105543058365583"/>
      <trkpt lat="46.031035529449582" lon="6.105707511305809"/>
      <trkpt lat="46.035077953711152" lon="6.108723320066929"/>
      <trkpt lat="46.037251967936754" lon="6.106222914531827"/>
      <trkpt lat="46.038635317236185" lon="6.102691786363721"/>
      <trkpt lat="46.041150642558932" lon="6.098699988797307"/>
      <trkpt lat="46.041150642558932" lon="6.098623210564256"/>
      <trkpt lat="46.043037073686719" lon="6.097548482939601"/>
      <trkpt lat="46.04731310158968" lon="6.090716477483511"/>
      <trkpt lat="46.049325261265039" lon="6.087338821962476"/>
      <trkpt lat="46.05259520933032" lon="6.086417650803924"/>
      <trkpt lat="46.056305207312107" lon="6.086264094337821"/>
      <trkpt lat="46.05768864043057" lon="6.08472878113389"/>
      <trkpt lat="46.059763748198748" lon="6.083423802629113"/>
      <trkpt lat="46.060706963762641" lon="6.081888489425182"/>
      <trkpt lat="46.060706963762641" lon="6.081811711192131"/>
      <trkpt lat="46.061838855966926" lon="6.078971419483423"/>
      <trkpt lat="46.062467666342854" lon="6.076054349541664"/>
      <trkpt lat="46.062530530616641" lon="6.076054349541664"/>
      <trkpt lat="46.063599558547139" lon="6.073981672525406"/>
      <trkpt lat="46.063725287094712" lon="6.073981672525406"/>
      <trkpt lat="46.064857179298997" lon="6.074058450758457"/>
      <trkpt lat="46.064920043572783" lon="6.074135228991509"/>
      <trkpt lat="46.068692989647388" lon="6.078510833904147"/>
      <trkpt lat="46.068755853921175" lon="6.078587612137198"/>
      <trkpt lat="46.073283338919282" lon="6.082118824124336"/>
      <trkpt lat="46.074855616316199" lon="6.085035810247064"/>
      <trkpt lat="46.074666939675808" lon="6.090562921017408"/>
      <trkpt lat="46.07705645263195" lon="6.093940576538444"/>
      <trkpt lat="46.07705645263195" lon="6.094170827418566"/>
      <trkpt lat="46.081017991527915" lon="6.100388774648309"/>
      <trkpt lat="46.081017991527915" lon="6.100235302001238"/>
      <trkpt lat="46.08460234478116" lon="6.100772665813565"/>
      <trkpt lat="46.084728073328733" lon="6.100849444046617"/>
      <trkpt lat="46.086740316823125" lon="6.10192408785224"/>
      <trkpt lat="46.086866045370698" lon="6.10192408785224"/>
      <trkpt lat="46.090387450531125" lon="6.102461451664567"/>
      <trkpt lat="46.093845991417766" lon="6.104073543101549"/>
      <trkpt lat="46.099505368620157" lon="6.104073543101549"/>
      <trkpt lat="46.099568232893944" lon="6.104073543101549"/>
      <trkpt lat="46.105164913460612" lon="6.10560885630548"/>
      <trkpt lat="46.108057508245111" lon="6.107835005968809"/>
      <trkpt lat="46.115603316575289" lon="6.108449148014188"/>
      <trkpt lat="46.118558775633574" lon="6.110061155632138"/>
      <trkpt lat="46.12453255802393" lon="6.11459031701088"/>
      <trkpt lat="46.127865370362997" lon="6.120194122195244"/>
      <trkpt lat="46.127802422270179" lon="6.120194122195244"/>
      <trkpt lat="46.132644396275282" lon="6.123341526836157"/>
      <trkpt lat="46.132707260549068" lon="6.123341526836157"/>
      <trkpt lat="46.133776288479567" lon="6.124723283573985"/>
      <trkpt lat="46.135168522596359" lon="6.126960413530469"/>
      <trkpt lat="46.138860583305359" lon="6.128539564087987"/>
      <trkpt lat="46.140405703336" lon="6.130842491984367"/>
      <trkpt lat="46.140405703336" lon="6.130875432863832"/>
      <trkpt lat="46.140809962525964" lon="6.133079705759883"/>
      <trkpt lat="46.142238238826394" lon="6.140547813847661"/>
      <trkpt lat="46.144690616056323" lon="6.136797247454524"/>
      <trkpt lat="46.145094875246286" lon="6.136534055694938"/>
      <trkpt lat="46.145148770883679" lon="6.136501198634505"/>
      <trkpt lat="46.146442350000143" lon="6.136698592454195"/>
      <trkpt lat="46.148167094215751" lon="6.13814614713192"/>
      <trkpt lat="46.150673450902104" lon="6.138376481831074"/>
      <trkpt lat="46.152047663927078" lon="6.139001604169607"/>
      <trkpt lat="46.154715707525611" lon="6.1391332000494"/>
      <trkpt lat="46.15681772120297" lon="6.139560928568244"/>
      <trkpt lat="46.159647451713681" lon="6.138277826830745"/>
      <trkpt lat="46.16554906591773" lon="6.139955716207624"/>
      <trkpt lat="46.168136224150658" lon="6.140778232365847"/>
      <trkpt lat="46.168109318241477" lon="6.140745291486383"/>
      <trkpt lat="46.169375907629728" lon="6.140547897666693"/>
      <trkpt lat="46.172124752774835" lon="6.138935806229711"/>
      <trkpt lat="46.174550224095583" lon="6.138475220650435"/>
      <trkpt lat="46.176732871681452" lon="6.138179171830416"/>
      <trkpt lat="46.178700188174844" lon="6.138870008289814"/>
      <trkpt lat="46.179562602192163" lon="6.139198997989297"/>
      <trkpt lat="46.180236339569092" lon="6.138573959469795"/>
      <trkpt lat="46.185567565262318" lon="6.137466374784708"/>
      <trkpt lat="46.186232250183821" lon="6.138891968876123"/>
      <trkpt lat="46.187975015491247" lon="6.138343624770641"/>
      <trkpt lat="46.190238799899817" lon="6.138541018590331"/>
      <trkpt lat="46.192807937040925" lon="6.13878233358264"/>
      <trkpt lat="46.193095436319709" lon="6.139001604169607"/>
      <trkpt lat="46.194178545847535" lon="6.140844030305743"/>
      <trkpt lat="46.194151556119323" lon="6.140844030305743"/>
      <trkpt lat="46.195094855502248" lon="6.142982505261898"/>
      <trkpt lat="46.195121761411428" lon="6.142982505261898"/>
      <trkpt lat="46.195418229326606" lon="6.146864583715797"/>
      <trkpt lat="46.197708919644356" lon="6.150253219529986"/>
      <trkpt lat="46.199972704052925" lon="6.153740510344505"/>
      <trkpt lat="46.200026599690318" lon="6.153806308284402"/>
      <trkpt lat="46.20288323611021" lon="6.155418399721384"/>
      <trkpt lat="46.202910142019391" lon="6.155418399721384"/>
      <trkpt lat="46.20339528657496" lon="6.15337866358459"/>
      <trkpt lat="46.203907337039709" lon="6.150713805109263"/>
      <trkpt lat="46.207033451646566" lon="6.147654158994556"/>
      <trkpt lat="46.209405027329922" lon="6.150549268350005"/>
      <trkpt lat="46.211426071822643" lon="6.152654886245728"/>
      <trkpt lat="46.216438533738256" lon="6.151470523327589"/>
      <trkpt lat="46.218756213784218" lon="6.148805664852262"/>
      <trkpt lat="46.217732112854719" lon="6.148180542513728"/>
      <trkpt lat="46.215657005086541" lon="6.147160716354847"/>
      <trkpt lat="46.215872671455145" lon="6.146667189896107"/>
      <trkpt lat="46.215010257437825" lon="6.145811816677451"/>
      <trkpt lat="46.214956361800432" lon="6.145811816677451"/>
    </trkseg>
  </trk>

</gpx>
