<?xml version="1.0" encoding="UTF-8" standalone="no" ?>
<gpx xmlns="http://www.topografix.com/GPX/1/1" creator="MapSource 6.16.3" version="1.1" xmlns:xsi="http://www.w3.org/2001/XMLSchema-instance" xsi:schemaLocation="http://www.topografix.com/GPX/1/1 http://www.topografix.com/GPX/1/1/gpx.xsd">

  <metadata>
    <link href="http://www.garmin.com">
      <text>Garmin International</text>
    </link>
    <time>2016-08-06T09:49:50Z</time>
    <bounds maxlat="45.579923428595066" maxlon="7.052527712658048" minlat="45.14203411526978" minlon="6.881868476048112"/>
  </metadata>

  <trk>
    <name>E5</name>
    <trkseg>
      <trkpt lat="45.579923428595066" lon="6.885004648938775"/>
      <trkpt lat="45.578441256657243" lon="6.883392641320825"/>
      <trkpt lat="45.57841426692903" lon="6.883359700441361"/>
      <trkpt lat="45.57806390337646" lon="6.882997853681445"/>
      <trkpt lat="45.577956112101674" lon="6.882964912801981"/>
      <trkpt lat="45.577012896537781" lon="6.883162306621671"/>
      <trkpt lat="45.576824219897389" lon="6.883359700441361"/>
      <trkpt lat="45.576258273795247" lon="6.88424801453948"/>
      <trkpt lat="45.574829997494817" lon="6.88444540835917"/>
      <trkpt lat="45.574749112129211" lon="6.88444540835917"/>
      <trkpt lat="45.572835691273212" lon="6.885914923623204"/>
      <trkpt lat="45.572835691273212" lon="6.886134194210172"/>
      <trkpt lat="45.571892475709319" lon="6.886463183909655"/>
      <trkpt lat="45.571757778525352" lon="6.886463183909655"/>
      <trkpt lat="45.571039114147425" lon="6.886518001556397"/>
      <trkpt lat="45.571039114147425" lon="6.88657290302217"/>
      <trkpt lat="45.568074686452746" lon="6.889424175024033"/>
      <trkpt lat="45.568074686452746" lon="6.889369273558259"/>
      <trkpt lat="45.567086543887854" lon="6.889314455911517"/>
      <trkpt lat="45.567086543887854" lon="6.889369273558259"/>
      <trkpt lat="45.564211886376143" lon="6.892768889665604"/>
      <trkpt lat="45.562819484621286" lon="6.892933426424861"/>
      <trkpt lat="45.56263986043632" lon="6.892988244071603"/>
      <trkpt lat="45.5609330534935" lon="6.894578374922276"/>
      <trkpt lat="45.55985514074564" lon="6.895017083734274"/>
      <trkpt lat="45.557833928614855" lon="6.898306980729103"/>
      <trkpt lat="45.555498311296105" lon="6.900664810091257"/>
      <trkpt lat="45.553387245163321" lon="6.901487242430449"/>
      <trkpt lat="45.550243109464645" lon="6.90351608209312"/>
      <trkpt lat="45.550198266282678" lon="6.903570899739862"/>
      <trkpt lat="45.548491459339857" lon="6.906476989388466"/>
      <trkpt lat="45.54364051669836" lon="6.90888955257833"/>
      <trkpt lat="45.543505819514394" lon="6.908944454044104"/>
      <trkpt lat="45.540945567190647" lon="6.911082845181227"/>
      <trkpt lat="45.539957424625754" lon="6.910973209887743"/>
      <trkpt lat="45.537082850933075" lon="6.912069814279676"/>
      <trkpt lat="45.536678591743112" lon="6.91420828923583"/>
      <trkpt lat="45.532815875485539" lon="6.915140440687537"/>
      <trkpt lat="45.53277094848454" lon="6.915140440687537"/>
      <trkpt lat="45.531737878918648" lon="6.916017774492502"/>
      <trkpt lat="45.530839590355754" lon="6.915085623040795"/>
      <trkpt lat="45.529222637414932" lon="6.91366002894938"/>
      <trkpt lat="45.529177710413933" lon="6.91366002894938"/>
      <trkpt lat="45.525225140154362" lon="6.912618158385158"/>
      <trkpt lat="45.521766599267721" lon="6.91420828923583"/>
      <trkpt lat="45.521721672266722" lon="6.91420828923583"/>
      <trkpt lat="45.520868310704827" lon="6.913276137784123"/>
      <trkpt lat="45.519161503762007" lon="6.914756633341312"/>
      <trkpt lat="45.513879982754588" lon="6.916982950642705"/>
      <trkpt lat="45.510376514866948" lon="6.923891818150878"/>
      <trkpt lat="45.509972339496017" lon="6.923891818150878"/>
      <trkpt lat="45.506064612418413" lon="6.926523735746741"/>
      <trkpt lat="45.5033696629107" lon="6.93129412829876"/>
      <trkpt lat="45.495689073577523" lon="6.932774623855948"/>
      <trkpt lat="45.495689073577523" lon="6.933432603254914"/>
      <trkpt lat="45.493263602256775" lon="6.940834913402796"/>
      <trkpt lat="45.480193113908172" lon="6.945934295654297"/>
      <trkpt lat="45.480193113908172" lon="6.946098748594523"/>
      <trkpt lat="45.478441463783383" lon="6.950211161747575"/>
      <trkpt lat="45.474668517708778" lon="6.948730750009418"/>
      <trkpt lat="45.47049131244421" lon="6.959093967452645"/>
      <trkpt lat="45.47049131244421" lon="6.958929430693388"/>
      <trkpt lat="45.466179409995675" lon="6.959587410092354"/>
      <trkpt lat="45.463214982300997" lon="6.963206380605698"/>
      <trkpt lat="45.45324370265007" lon="6.971266670152545"/>
      <trkpt lat="45.45324370265007" lon="6.971431206911802"/>
      <trkpt lat="45.448392760008574" lon="6.980971908196807"/>
      <trkpt lat="45.446775807067752" lon="6.98837430216372"/>
      <trkpt lat="45.447584325447679" lon="6.993638137355447"/>
      <trkpt lat="45.448123281821609" lon="7.007291335612536"/>
      <trkpt lat="45.453378399834037" lon="7.018806058913469"/>
      <trkpt lat="45.453378399834037" lon="7.019135048612952"/>
      <trkpt lat="45.450818231329322" lon="7.02390544116497"/>
      <trkpt lat="45.45095301233232" lon="7.02390544116497"/>
      <trkpt lat="45.455399611964822" lon="7.036736123263836"/>
      <trkpt lat="45.45324370265007" lon="7.035255627706647"/>
      <trkpt lat="45.45324370265007" lon="7.03558461740613"/>
      <trkpt lat="45.453917440026999" lon="7.040355009958148"/>
      <trkpt lat="45.44569781050086" lon="7.019135048612952"/>
      <trkpt lat="45.446236850693822" lon="7.022753935307264"/>
      <trkpt lat="45.442463904619217" lon="7.016832120716572"/>
      <trkpt lat="45.441251210868359" lon="7.010087706148624"/>
      <trkpt lat="45.439229998737574" lon="7.005481850355864"/>
      <trkpt lat="45.435457052662969" lon="7.002520943060517"/>
      <trkpt lat="45.431010369211435" lon="7.001369437202811"/>
      <trkpt lat="45.433570621535182" lon="7.003014385700226"/>
      <trkpt lat="45.436804527416825" lon="7.006139829754829"/>
      <trkpt lat="45.433974796906114" lon="7.006304366514087"/>
      <trkpt lat="45.438690958544612" lon="7.010087706148624"/>
      <trkpt lat="45.435996009036899" lon="7.014364656060934"/>
      <trkpt lat="45.433435840532184" lon="7.014364656060934"/>
      <trkpt lat="45.433301059529185" lon="7.014364656060934"/>
      <trkpt lat="45.43249262496829" lon="7.019628491252661"/>
      <trkpt lat="45.429123938083649" lon="7.020286470651627"/>
      <trkpt lat="45.427506985142827" lon="7.021931502968073"/>
      <trkpt lat="45.42386882007122" lon="7.022260492667556"/>
      <trkpt lat="45.423195082694292" lon="7.02768886461854"/>
      <trkpt lat="45.420634998008609" lon="7.028511296957731"/>
      <trkpt lat="45.417401008307934" lon="7.029827255755663"/>
      <trkpt lat="45.419557001441717" lon="7.032788163051009"/>
      <trkpt lat="45.420634998008609" lon="7.036900576204062"/>
      <trkpt lat="45.420634998008609" lon="7.037065112963319"/>
      <trkpt lat="45.415245098993182" lon="7.032788163051009"/>
      <trkpt lat="45.411741631105542" lon="7.028675833716989"/>
      <trkpt lat="45.411741631105542" lon="7.028511296957731"/>
      <trkpt lat="45.406486513093114" lon="7.027524327859283"/>
      <trkpt lat="45.404734779149294" lon="7.030485235154629"/>
      <trkpt lat="45.401770351454616" lon="7.034926638007164"/>
      <trkpt lat="45.401770351454616" lon="7.035091174766421"/>
      <trkpt lat="45.401096614077687" lon="7.040026020258665"/>
      <trkpt lat="45.401096614077687" lon="7.040190557017922"/>
      <trkpt lat="45.399749139323831" lon="7.04397389665246"/>
      <trkpt lat="45.396245671436191" lon="7.042657937854528"/>
      <trkpt lat="45.395976193249226" lon="7.042657937854528"/>
      <trkpt lat="45.391529593616724" lon="7.047592867165804"/>
      <trkpt lat="45.388834644109011" lon="7.047592867165804"/>
      <trkpt lat="45.392472809180617" lon="7.043480454012752"/>
      <trkpt lat="45.397188970819116" lon="7.038874598219991"/>
      <trkpt lat="45.392472809180617" lon="7.040355009958148"/>
      <trkpt lat="45.391933768987656" lon="7.040848536416888"/>
      <trkpt lat="45.386409172788262" lon="7.045454392209649"/>
      <trkpt lat="45.385331176221371" lon="7.046441361308098"/>
      <trkpt lat="45.385331176221371" lon="7.04216449521482"/>
      <trkpt lat="45.382905704900622" lon="7.046441361308098"/>
      <trkpt lat="45.380884492769837" lon="7.046770351007581"/>
      <trkpt lat="45.380480317398906" lon="7.049566805362701"/>
      <trkpt lat="45.378324324265122" lon="7.049073278903961"/>
      <trkpt lat="45.376572590321302" lon="7.043809443712235"/>
      <trkpt lat="45.376437893137336" lon="7.043480454012752"/>
      <trkpt lat="45.373338684439659" lon="7.038381071761251"/>
      <trkpt lat="45.372664947062731" lon="7.033446226269007"/>
      <trkpt lat="45.369430957362056" lon="7.031307751312852"/>
      <trkpt lat="45.372125906869769" lon="7.040519546717405"/>
      <trkpt lat="45.373742943629622" lon="7.046605898067355"/>
      <trkpt lat="45.373742943629622" lon="7.046934887766838"/>
      <trkpt lat="45.374551378190517" lon="7.052527712658048"/>
      <trkpt lat="45.374281900003552" lon="7.052527712658048"/>
      <trkpt lat="45.370778432115912" lon="7.048908825963736"/>
      <trkpt lat="45.370643734931946" lon="7.048744289204478"/>
      <trkpt lat="45.369835216552019" lon="7.042657937854528"/>
      <trkpt lat="45.358516545966268" lon="7.030485235154629"/>
      <trkpt lat="45.353530906140804" lon="7.029662802815437"/>
      <trkpt lat="45.345176579430699" lon="7.029004823416472"/>
      <trkpt lat="45.344907101243734" lon="7.029004823416472"/>
      <trkpt lat="45.334262084215879" lon="7.019793028011918"/>
      <trkpt lat="45.334127303212881" lon="7.019793028011918"/>
      <trkpt lat="45.330219659954309" lon="7.01452910900116"/>
      <trkpt lat="45.326985670253634" lon="7.005317397415638"/>
      <trkpt lat="45.326446713879704" lon="7.004823870956898"/>
      <trkpt lat="45.31984412111342" lon="6.997586013749242"/>
      <trkpt lat="45.319035602733493" lon="6.997421560809016"/>
      <trkpt lat="45.312972133979201" lon="6.991006219759584"/>
      <trkpt lat="45.312972133979201" lon="6.990677230060101"/>
      <trkpt lat="45.31189413741231" lon="6.986235827207565"/>
      <trkpt lat="45.30839066952467" lon="6.978668980300427"/>
      <trkpt lat="45.308121191337705" lon="6.978339990600944"/>
      <trkpt lat="45.308929709717631" lon="6.971760196611285"/>
      <trkpt lat="45.306504238396883" lon="6.96682526730001"/>
      <trkpt lat="45.306773716583848" lon="6.959916483610869"/>
      <trkpt lat="45.306773716583848" lon="6.959751946851611"/>
      <trkpt lat="45.305021982640028" lon="6.956462049856782"/>
      <trkpt lat="45.303135551512241" lon="6.955639533698559"/>
      <trkpt lat="45.302731292322278" lon="6.953336605802178"/>
      <trkpt lat="45.302461814135313" lon="6.953172069042921"/>
      <trkpt lat="45.301653295755386" lon="6.952843079343438"/>
      <trkpt lat="45.299497386440635" lon="6.949553182348609"/>
      <trkpt lat="45.301114339381456" lon="6.944289347156882"/>
      <trkpt lat="45.298688868060708" lon="6.940012397244573"/>
      <trkpt lat="45.299632083624601" lon="6.935570994392037"/>
      <trkpt lat="45.296532958745956" lon="6.937051489949226"/>
      <trkpt lat="45.298419389873743" lon="6.933926045894623"/>
      <trkpt lat="45.296955071389675" lon="6.933224145323038"/>
      <trkpt lat="45.295320181176066" lon="6.933914981782436"/>
      <trkpt lat="45.29399961233139" lon="6.93115146830678"/>
      <trkpt lat="45.29399961233139" lon="6.931074690073729"/>
      <trkpt lat="45.295571638271213" lon="6.926775863394141"/>
      <trkpt lat="45.294251153245568" lon="6.926392056047916"/>
      <trkpt lat="45.294125424697995" lon="6.924549713730812"/>
      <trkpt lat="45.293245073407888" lon="6.924089128151536"/>
      <trkpt lat="45.293245073407888" lon="6.924012349918485"/>
      <trkpt lat="45.293433666229248" lon="6.922323564067483"/>
      <trkpt lat="45.292238909751177" lon="6.920097330585122"/>
      <trkpt lat="45.292238909751177" lon="6.920020552352071"/>
      <trkpt lat="45.290666883811355" lon="6.91311176866293"/>
      <trkpt lat="45.290226666256785" lon="6.90865938551724"/>
      <trkpt lat="45.287962965667248" lon="6.901750518009067"/>
      <trkpt lat="45.286202263087034" lon="6.89668407663703"/>
      <trkpt lat="45.286139398813248" lon="6.881868476048112"/>
      <trkpt lat="45.284062195569277" lon="6.883513256907463"/>
      <trkpt lat="45.284062195569277" lon="6.883622976019979"/>
      <trkpt lat="45.283972341567278" lon="6.899743555113673"/>
      <trkpt lat="45.284691005945206" lon="6.908407006412745"/>
      <trkpt lat="45.284601151943207" lon="6.908297371119261"/>
      <trkpt lat="45.280558727681637" lon="6.896453658118844"/>
      <trkpt lat="45.280558727681637" lon="6.896782647818327"/>
      <trkpt lat="45.2810079138726" lon="6.912135612219572"/>
      <trkpt lat="45.280918059870601" lon="6.911806622520089"/>
      <trkpt lat="45.276336679235101" lon="6.896563293412328"/>
      <trkpt lat="45.276336679235101" lon="6.89711163751781"/>
      <trkpt lat="45.276516303420067" lon="6.905336463823915"/>
      <trkpt lat="45.276516303420067" lon="6.905555734410882"/>
      <trkpt lat="45.277055343613029" lon="6.912574237212539"/>
      <trkpt lat="45.277055343613029" lon="6.912464601919055"/>
      <trkpt lat="45.273821353912354" lon="6.90676205791533"/>
      <trkpt lat="45.269868783652782" lon="6.89634402282536"/>
      <trkpt lat="45.266634877771139" lon="6.897988971322775"/>
      <trkpt lat="45.266455169767141" lon="6.898317961022258"/>
      <trkpt lat="45.262592453509569" lon="6.90193684771657"/>
      <trkpt lat="45.262592453509569" lon="6.901827212423086"/>
      <trkpt lat="45.26196364313364" lon="6.899304930120707"/>
      <trkpt lat="45.259088985621929" lon="6.901059513911605"/>
      <trkpt lat="45.258460175246" lon="6.904788119718432"/>
      <trkpt lat="45.253968648612499" lon="6.906871777027845"/>
      <trkpt lat="45.253429608419538" lon="6.907091047614813"/>
      <trkpt lat="45.253429608419538" lon="6.907200766727328"/>
      <trkpt lat="45.25217198766768" lon="6.919702459126711"/>
      <trkpt lat="45.25217198766768" lon="6.919921729713678"/>
      <trkpt lat="45.247321045026183" lon="6.935055423527956"/>
      <trkpt lat="45.24408713914454" lon="6.940757967531681"/>
      <trkpt lat="45.243817660957575" lon="6.941306227818131"/>
      <trkpt lat="45.243458328768611" lon="6.948324730619788"/>
      <trkpt lat="45.243278620764613" lon="6.94909242913127"/>
      <trkpt lat="45.229714186862111" lon="6.959072006866336"/>
      <trkpt lat="45.224773390218616" lon="6.969599761068821"/>
      <trkpt lat="45.215880107134581" lon="6.969051416963339"/>
      <trkpt lat="45.220820819959044" lon="6.966967843472958"/>
      <trkpt lat="45.220461487770081" lon="6.966858208179474"/>
      <trkpt lat="45.214802110567689" lon="6.966419499367476"/>
      <trkpt lat="45.214622486382723" lon="6.966309864073992"/>
      <trkpt lat="45.214442778378725" lon="6.965213175863028"/>
      <trkpt lat="45.218480676412582" lon="6.957712210714817"/>
      <trkpt lat="45.217348784208298" lon="6.954027442261577"/>
      <trkpt lat="45.216719973832369" lon="6.955102169886231"/>
      <trkpt lat="45.216657025739551" lon="6.955102169886231"/>
      <trkpt lat="45.215713810175657" lon="6.953106271103025"/>
      <trkpt lat="45.216845702379942" lon="6.958096018061042"/>
      <trkpt lat="45.215650945901871" lon="6.954795140773058"/>
      <trkpt lat="45.21527367644012" lon="6.958249574527144"/>
      <trkpt lat="45.215022135525942" lon="6.954641584306955"/>
      <trkpt lat="45.214770594611764" lon="6.956023341044784"/>
      <trkpt lat="45.206281486898661" lon="6.962011037394404"/>
      <trkpt lat="45.204017786309123" lon="6.967351650819182"/>
      <trkpt lat="45.200514318421483" lon="6.970806084573269"/>
      <trkpt lat="45.19903214648366" lon="6.978043941780925"/>
      <trkpt lat="45.19903214648366" lon="6.97820839472115"/>
      <trkpt lat="45.196337196975946" lon="6.98199181817472"/>
      <trkpt lat="45.196606675162911" lon="6.984130293130875"/>
      <trkpt lat="45.196337196975946" lon="6.984130293130875"/>
      <trkpt lat="45.192968510091305" lon="6.984952725470066"/>
      <trkpt lat="45.190408257767558" lon="6.982485260814428"/>
      <trkpt lat="45.189465042203665" lon="6.978537384420633"/>
      <trkpt lat="45.189465042203665" lon="6.978372931480408"/>
      <trkpt lat="45.188521826639771" lon="6.978537384420633"/>
      <trkpt lat="45.186500614508986" lon="6.977879405021668"/>
      <trkpt lat="45.184748880565166" lon="6.987255653366447"/>
      <trkpt lat="45.184748880565166" lon="6.987091200426221"/>
      <trkpt lat="45.180841237306595" lon="6.994987037032843"/>
      <trkpt lat="45.176933594048023" lon="6.995809469372034"/>
      <trkpt lat="45.172756388783455" lon="7.000086335465312"/>
      <trkpt lat="45.17302586697042" lon="7.000086335465312"/>
      <trkpt lat="45.17477760091424" lon="7.00074439868331"/>
      <trkpt lat="45.17477760091424" lon="7.000908851623535"/>
      <trkpt lat="45.17302586697042" lon="7.003540769219399"/>
      <trkpt lat="45.172352129593492" lon="7.003376316279173"/>
      <trkpt lat="45.170061439275742" lon="7.001402378082275"/>
      <trkpt lat="45.170061439275742" lon="7.001237841323018"/>
      <trkpt lat="45.163593711331487" lon="6.998441386967897"/>
      <trkpt lat="45.163458930328488" lon="6.998112397268415"/>
      <trkpt lat="45.157260596752167" lon="6.995480479672551"/>
      <trkpt lat="45.155104603618383" lon="6.993506541475654"/>
      <trkpt lat="45.153083391487598" lon="6.998276934027672"/>
      <trkpt lat="45.145402802154422" lon="7.002718336880207"/>
      <trkpt lat="45.142842633649707" lon="7.002718336880207"/>
      <trkpt lat="45.143112111836672" lon="7.00304732657969"/>
      <trkpt lat="45.143516371026635" lon="7.006501760333777"/>
      <trkpt lat="45.14203411526978" lon="7.00535025447607"/>
      <trkpt lat="45.142294708639383" lon="7.009221268817782"/>
    </trkseg>
  </trk>

</gpx>
