<?xml version="1.0" encoding="UTF-8" standalone="no" ?>
<gpx xmlns="http://www.topografix.com/GPX/1/1" creator="MapSource 6.16.3" version="1.1" xmlns:xsi="http://www.w3.org/2001/XMLSchema-instance" xsi:schemaLocation="http://www.topografix.com/GPX/1/1 http://www.topografix.com/GPX/1/1/gpx.xsd">

  <metadata>
    <link href="http://www.garmin.com">
      <text>Garmin International</text>
    </link>
    <time>2016-08-06T09:26:15Z</time>
    <bounds maxlat="46.209800988435745" maxlon="7.320819860324264" minlat="45.889181541278958" minlon="6.685185609385371"/>
  </metadata>

  <trk>
    <name>E3</name>
    <trkseg>
      <trkpt lat="46.209800988435745" lon="7.320819860324264"/>
      <trkpt lat="46.209747092798352" lon="7.320819860324264"/>
      <trkpt lat="46.209747176617384" lon="7.314469981938601"/>
      <trkpt lat="46.209450708702207" lon="7.312265792861581"/>
      <trkpt lat="46.20864219032228" lon="7.310225972905755"/>
      <trkpt lat="46.203845227137208" lon="7.302955258637667"/>
      <trkpt lat="46.20317148976028" lon="7.30108005926013"/>
      <trkpt lat="46.200800081714988" lon="7.293808842077851"/>
      <trkpt lat="46.199560398235917" lon="7.287163250148296"/>
      <trkpt lat="46.198105132207274" lon="7.281307149678469"/>
      <trkpt lat="46.195706650614738" lon="7.274694414809346"/>
      <trkpt lat="46.193901021033525" lon="7.270384607836604"/>
      <trkpt lat="46.190586229786277" lon="7.261874629184604"/>
      <trkpt lat="46.190397636964917" lon="7.261644378304482"/>
      <trkpt lat="46.186184473335743" lon="7.256577853113413"/>
      <trkpt lat="46.186184473335743" lon="7.256654631346464"/>
      <trkpt lat="46.183354826644063" lon="7.25035990588367"/>
      <trkpt lat="46.18341769091785" lon="7.25035990588367"/>
      <trkpt lat="46.182851744815707" lon="7.246751999482513"/>
      <trkpt lat="46.182726016268134" lon="7.246521664783359"/>
      <trkpt lat="46.180210690945387" lon="7.235390832647681"/>
      <trkpt lat="46.177569637075067" lon="7.231859620660543"/>
      <trkpt lat="46.175683122128248" lon="7.22786782309413"/>
      <trkpt lat="46.176195172592998" lon="7.226025396957994"/>
      <trkpt lat="46.176069360226393" lon="7.225871924310923"/>
      <trkpt lat="46.172862444072962" lon="7.222340712323785"/>
      <trkpt lat="46.174308657646179" lon="7.219807449728251"/>
      <trkpt lat="46.174497334286571" lon="7.219884227961302"/>
      <trkpt lat="46.175314821302891" lon="7.22126598469913"/>
      <trkpt lat="46.177704334259033" lon="7.218272220343351"/>
      <trkpt lat="46.18040825240314" lon="7.217274270951748"/>
      <trkpt lat="46.18405538611114" lon="7.213589502498508"/>
      <trkpt lat="46.185187278315425" lon="7.210211846977472"/>
      <trkpt lat="46.186382034793496" lon="7.208292726427317"/>
      <trkpt lat="46.186067629605532" lon="7.208139253780246"/>
      <trkpt lat="46.185061549767852" lon="7.207294777035713"/>
      <trkpt lat="46.183112170547247" lon="7.20322628505528"/>
      <trkpt lat="46.182860629633069" lon="7.203072728589177"/>
      <trkpt lat="46.180974198505282" lon="7.201844528317452"/>
      <trkpt lat="46.1769497115165" lon="7.194551853463054"/>
      <trkpt lat="46.1769497115165" lon="7.194475075230002"/>
      <trkpt lat="46.176383765414357" lon="7.192018590867519"/>
      <trkpt lat="46.176069360226393" lon="7.191865034401417"/>
      <trkpt lat="46.172988172620535" lon="7.188794491812587"/>
      <trkpt lat="46.170598659664392" lon="7.185570392757654"/>
      <trkpt lat="46.170535795390606" lon="7.185493614524603"/>
      <trkpt lat="46.168900821357965" lon="7.18303713016212"/>
      <trkpt lat="46.165379416197538" lon="7.184035079553723"/>
      <trkpt lat="46.16185792721808" lon="7.172289937734604"/>
      <trkpt lat="46.157141765579581" lon="7.15770467184484"/>
      <trkpt lat="46.154626524075866" lon="7.151102833449841"/>
      <trkpt lat="46.152425603941083" lon="7.145345471799374"/>
      <trkpt lat="46.146892039105296" lon="7.132295519113541"/>
      <trkpt lat="46.14374790340662" lon="7.124926066026092"/>
      <trkpt lat="46.138654304668307" lon="7.11817067116499"/>
      <trkpt lat="46.136201843619347" lon="7.114946572110057"/>
      <trkpt lat="46.134944222867489" lon="7.11295067332685"/>
      <trkpt lat="46.134881358593702" lon="7.11295067332685"/>
      <trkpt lat="46.130542466416955" lon="7.102357121184468"/>
      <trkpt lat="46.129347709938884" lon="7.096062395721674"/>
      <trkpt lat="46.127335466444492" lon="7.090228255838156"/>
      <trkpt lat="46.125134630128741" lon="7.086082985624671"/>
      <trkpt lat="46.123625468462706" lon="7.086773905903101"/>
      <trkpt lat="46.118217632174492" lon="7.081246795132756"/>
      <trkpt lat="46.116959927603602" lon="7.079941816627979"/>
      <trkpt lat="46.115442384034395" lon="7.078877985477448"/>
      <trkpt lat="46.115415394306183" lon="7.078812187537551"/>
      <trkpt lat="46.111965905874968" lon="7.077496228739619"/>
      <trkpt lat="46.105012949556112" lon="7.075390694662929"/>
      <trkpt lat="46.104258578270674" lon="7.07496271468699"/>
      <trkpt lat="46.104258578270674" lon="7.074929857626557"/>
      <trkpt lat="46.10331536270678" lon="7.07226499915123"/>
      <trkpt lat="46.103261467069387" lon="7.072133403271437"/>
      <trkpt lat="46.10277640633285" lon="7.071639960631728"/>
      <trkpt lat="46.102803312242031" lon="7.069863332435489"/>
      <trkpt lat="46.102803312242031" lon="7.06976467743516"/>
      <trkpt lat="46.102183470502496" lon="7.069040900096297"/>
      <trkpt lat="46.102156564593315" lon="7.069040900096297"/>
      <trkpt lat="46.101698409765959" lon="7.06917249597609"/>
      <trkpt lat="46.10013535246253" lon="7.067626202479005"/>
      <trkpt lat="46.095607783645391" lon="7.063086144626141"/>
      <trkpt lat="46.093424884602427" lon="7.063744124025106"/>
      <trkpt lat="46.092885928228498" lon="7.064270507544279"/>
      <trkpt lat="46.09223909676075" lon="7.064533699303865"/>
      <trkpt lat="46.09223909676075" lon="7.064500842243433"/>
      <trkpt lat="46.091754036024213" lon="7.064237566664815"/>
      <trkpt lat="46.0908377263695" lon="7.062099175527692"/>
      <trkpt lat="46.090460456907749" lon="7.061342457309365"/>
      <trkpt lat="46.089166877791286" lon="7.06098061054945"/>
      <trkpt lat="46.089166877791286" lon="7.060947669669986"/>
      <trkpt lat="46.088681817054749" lon="7.060717418789864"/>
      <trkpt lat="46.087576914578676" lon="7.059598853811622"/>
      <trkpt lat="46.087172655388713" lon="7.058875076472759"/>
      <trkpt lat="46.087145665660501" lon="7.058842135593295"/>
      <trkpt lat="46.086903177201748" lon="7.057953821495175"/>
      <trkpt lat="46.08730735257268" lon="7.057131389155984"/>
      <trkpt lat="46.087711611762643" lon="7.056407611817122"/>
      <trkpt lat="46.087927194312215" lon="7.055716691538692"/>
      <trkpt lat="46.088250651955605" lon="7.055190308019519"/>
      <trkpt lat="46.088466234505177" lon="7.054927116259933"/>
      <trkpt lat="46.088493140414357" lon="7.054927116259933"/>
      <trkpt lat="46.089301658794284" lon="7.055058712139726"/>
      <trkpt lat="46.089247763156891" lon="7.055058712139726"/>
      <trkpt lat="46.089948406443" lon="7.054367875680327"/>
      <trkpt lat="46.091457568109035" lon="7.054927116259933"/>
      <trkpt lat="46.091457568109035" lon="7.054960057139397"/>
      <trkpt lat="46.092832032591105" lon="7.056243075057864"/>
      <trkpt lat="46.094152517616749" lon="7.057526176795363"/>
      <trkpt lat="46.096685780212283" lon="7.059434317052364"/>
      <trkpt lat="46.097709881141782" lon="7.059434317052364"/>
      <trkpt lat="46.099757999181747" lon="7.061539851129055"/>
      <trkpt lat="46.099973665550351" lon="7.061967579647899"/>
      <trkpt lat="46.103611830621958" lon="7.06456664018333"/>
      <trkpt lat="46.103611830621958" lon="7.064336305484176"/>
      <trkpt lat="46.102668615058064" lon="7.06328353844583"/>
      <trkpt lat="46.100404830649495" lon="7.060454227030277"/>
      <trkpt lat="46.09927293844521" lon="7.05709844827652"/>
      <trkpt lat="46.097170924767852" lon="7.054499471560121"/>
      <trkpt lat="46.09609292820096" lon="7.054104683920741"/>
      <trkpt lat="46.094044726341963" lon="7.052130661904812"/>
      <trkpt lat="46.094071716070175" lon="7.052130661904812"/>
      <trkpt lat="46.092292992398143" lon="7.049729079008102"/>
      <trkpt lat="46.091727297753096" lon="7.048544464632869"/>
      <trkpt lat="46.09110745601356" lon="7.04736010171473"/>
      <trkpt lat="46.089652189984918" lon="7.045517759397626"/>
      <trkpt lat="46.089113149791956" lon="7.045419020578265"/>
      <trkpt lat="46.085771452635527" lon="7.042096266523004"/>
      <trkpt lat="46.084693456068635" lon="7.039957791566849"/>
      <trkpt lat="46.083938833326101" lon="7.040056446567178"/>
      <trkpt lat="46.08180982992053" lon="7.037325873970985"/>
      <trkpt lat="46.081216977909207" lon="7.036766549572349"/>
      <trkpt lat="46.081216977909207" lon="7.036700751632452"/>
      <trkpt lat="46.080866614356637" lon="7.035911176353693"/>
      <trkpt lat="46.080866614356637" lon="7.035878235474229"/>
      <trkpt lat="46.08092050999403" lon="7.034759670495987"/>
      <trkpt lat="46.080920677632093" lon="7.033969843760133"/>
      <trkpt lat="46.079869670793414" lon="7.032160442322493"/>
      <trkpt lat="46.0790881421417" lon="7.032950017601252"/>
      <trkpt lat="46.078198822215199" lon="7.032489432021976"/>
      <trkpt lat="46.076851347461343" lon="7.029561381787062"/>
      <trkpt lat="46.076204515993595" lon="7.028146684169769"/>
      <trkpt lat="46.075018728151917" lon="7.028706008568406"/>
      <trkpt lat="46.073940731585026" lon="7.028179625049233"/>
      <trkpt lat="46.073132297024131" lon="7.02735710889101"/>
      <trkpt lat="46.072162091732025" lon="7.026271484792233"/>
      <trkpt lat="46.072135185822845" lon="7.026238543912768"/>
      <trkpt lat="46.070976303890347" lon="7.025975352153182"/>
      <trkpt lat="46.069952286779881" lon="7.025416111573577"/>
      <trkpt lat="46.068766498938203" lon="7.02554770745337"/>
      <trkpt lat="46.06871260330081" lon="7.025152919813991"/>
      <trkpt lat="46.070194775238633" lon="7.024461999535561"/>
      <trkpt lat="46.070814616978168" lon="7.025218717753887"/>
      <trkpt lat="46.072458559647202" lon="7.024790989235044"/>
      <trkpt lat="46.074713291600347" lon="7.02574510127306"/>
      <trkpt lat="46.073141265660524" lon="7.024209788069129"/>
      <trkpt lat="46.071254834532738" lon="7.023902758955956"/>
      <trkpt lat="46.065343916416168" lon="7.01983418315649"/>
      <trkpt lat="46.069494131952524" lon="7.020678576081991"/>
      <trkpt lat="46.072198050096631" lon="7.022444223985076"/>
      <trkpt lat="46.075845183804631" lon="7.020217990502715"/>
      <trkpt lat="46.072260914370418" lon="7.020755354315043"/>
      <trkpt lat="46.072198050096631" lon="7.020755354315043"/>
      <trkpt lat="46.066790213808417" lon="7.016533305868506"/>
      <trkpt lat="46.062702862545848" lon="7.01077594421804"/>
      <trkpt lat="46.062639998272061" lon="7.010699165984988"/>
      <trkpt lat="46.059055728837848" lon="7.003099462017417"/>
      <trkpt lat="46.057923752814531" lon="7.002024734392762"/>
      <trkpt lat="46.058301022276282" lon="6.999645028263331"/>
      <trkpt lat="46.058112345635891" lon="6.999645028263331"/>
      <trkpt lat="46.053396183997393" lon="6.999952057376504"/>
      <trkpt lat="46.053207591176033" lon="6.999875362962484"/>
      <trkpt lat="46.044278349727392" lon="6.997649129480124"/>
      <trkpt lat="46.052012834697962" lon="6.996727958321571"/>
      <trkpt lat="46.053018914535642" lon="6.995883565396071"/>
      <trkpt lat="46.056603183969855" lon="6.996190594509244"/>
      <trkpt lat="46.060187453404069" lon="6.992198880761862"/>
      <trkpt lat="46.065155155956745" lon="6.989128254354"/>
      <trkpt lat="46.065029427409172" lon="6.989128254354"/>
      <trkpt lat="46.068802289664745" lon="6.9816820230335"/>
      <trkpt lat="46.06974558904767" lon="6.978764953091741"/>
      <trkpt lat="46.07156915590167" lon="6.976231690496206"/>
      <trkpt lat="46.071317614987493" lon="6.975003490224481"/>
      <trkpt lat="46.071191802620888" lon="6.974849933758378"/>
      <trkpt lat="46.068487884476781" lon="6.973084369674325"/>
      <trkpt lat="46.068487884476781" lon="6.973007591441274"/>
      <trkpt lat="46.067733345553279" lon="6.969629935920239"/>
      <trkpt lat="46.065155155956745" lon="6.966329058632255"/>
      <trkpt lat="46.062011020258069" lon="6.965484581887722"/>
      <trkpt lat="46.060501858592033" lon="6.962414039298892"/>
      <trkpt lat="46.057420670986176" lon="6.957731321454048"/>
      <trkpt lat="46.055848645046353" lon="6.955198142677546"/>
      <trkpt lat="46.055722832679749" lon="6.955121364444494"/>
      <trkpt lat="46.054213671013713" lon="6.952281072735786"/>
      <trkpt lat="46.052138563245535" lon="6.949210446327925"/>
      <trkpt lat="46.051321076229215" lon="6.948366053402424"/>
      <trkpt lat="46.05100667104125" lon="6.945756012573838"/>
      <trkpt lat="46.049497509375215" lon="6.943836892023683"/>
      <trkpt lat="46.043649287894368" lon="6.940075429156423"/>
      <trkpt lat="46.039121802896261" lon="6.938002752140164"/>
      <trkpt lat="46.035726210102439" lon="6.936006853356957"/>
      <trkpt lat="46.033776830881834" lon="6.931861583143473"/>
      <trkpt lat="46.033148020505905" lon="6.930326269939542"/>
      <trkpt lat="46.031513046473265" lon="6.929865684360266"/>
      <trkpt lat="46.030821371823549" lon="6.928253676742315"/>
      <trkpt lat="46.030129697173834" lon="6.928253676742315"/>
      <trkpt lat="46.028683399781585" lon="6.926488028839231"/>
      <trkpt lat="46.028431858867407" lon="6.926488028839231"/>
      <trkpt lat="46.027425779029727" lon="6.926411250606179"/>
      <trkpt lat="46.02654542773962" lon="6.923954850062728"/>
      <trkpt lat="46.025036266073585" lon="6.921805394813418"/>
      <trkpt lat="46.024973317980766" lon="6.921651838347316"/>
      <trkpt lat="46.023589968681335" lon="6.920270081609488"/>
      <trkpt lat="46.021074643358588" lon="6.917967153713107"/>
      <trkpt lat="46.020257156342268" lon="6.918581295758486"/>
      <trkpt lat="46.019628345966339" lon="6.919655939564109"/>
      <trkpt lat="46.017427509650588" lon="6.91973271779716"/>
      <trkpt lat="46.017050240188837" lon="6.919348910450935"/>
      <trkpt lat="46.015541078522801" lon="6.919195353984833"/>
      <trkpt lat="46.015478130429983" lon="6.919195353984833"/>
      <trkpt lat="46.013906104490161" lon="6.920346859842539"/>
      <trkpt lat="46.012334078550339" lon="6.921805394813418"/>
      <trkpt lat="46.011579455807805" lon="6.922189202159643"/>
      <trkpt lat="46.011579455807805" lon="6.922265980392695"/>
      <trkpt lat="46.011139322072268" lon="6.923878071829677"/>
      <trkpt lat="46.010070294141769" lon="6.923878071829677"/>
      <trkpt lat="46.008372455835342" lon="6.922956900671125"/>
      <trkpt lat="46.008309591561556" lon="6.922956900671125"/>
      <trkpt lat="46.004410749301314" lon="6.923724515363574"/>
      <trkpt lat="46.001769695430994" lon="6.922803344205022"/>
      <trkpt lat="45.999820316210389" lon="6.923570958897471"/>
      <trkpt lat="45.99963172338903" lon="6.923647737130523"/>
      <trkpt lat="45.997556615620852" lon="6.925873886793852"/>
      <trkpt lat="45.997493667528033" lon="6.925873886793852"/>
      <trkpt lat="45.996864857152104" lon="6.926641585305333"/>
      <trkpt lat="45.994852697476745" lon="6.927102170884609"/>
      <trkpt lat="45.993091994896531" lon="6.927025392651558"/>
      <trkpt lat="45.991268344223499" lon="6.926871836185455"/>
      <trkpt lat="45.990953939035535" lon="6.926871836185455"/>
      <trkpt lat="45.989004643633962" lon="6.926257777959108"/>
      <trkpt lat="45.988753102719784" lon="6.927639534696937"/>
      <trkpt lat="45.990010723471642" lon="6.926718363538384"/>
      <trkpt lat="45.991519885137677" lon="6.927869785577059"/>
      <trkpt lat="45.989759182557464" lon="6.927639534696937"/>
      <trkpt lat="45.990513805299997" lon="6.928944513201714"/>
      <trkpt lat="45.988627374172211" lon="6.928407149389386"/>
      <trkpt lat="45.987684074789286" lon="6.928407149389386"/>
      <trkpt lat="45.986049184575677" lon="6.927716312929988"/>
      <trkpt lat="45.983848264440894" lon="6.927102170884609"/>
      <trkpt lat="45.982213374227285" lon="6.925873886793852"/>
      <trkpt lat="45.982150509953499" lon="6.925873886793852"/>
      <trkpt lat="45.978754833340645" lon="6.923187151551247"/>
      <trkpt lat="45.976742589846253" lon="6.921037780120969"/>
      <trkpt lat="45.976176643744111" lon="6.920730667188764"/>
      <trkpt lat="45.975736510008574" lon="6.921421587467194"/>
      <trkpt lat="45.973284132778645" lon="6.919655939564109"/>
      <trkpt lat="45.971334585919976" lon="6.916508618742228"/>
      <trkpt lat="45.970076965168118" lon="6.916585396975279"/>
      <trkpt lat="45.967876128852367" lon="6.91366832703352"/>
      <trkpt lat="45.964040318503976" lon="6.912286570295692"/>
      <trkpt lat="45.961965210735798" lon="6.909522973001003"/>
      <trkpt lat="45.961965210735798" lon="6.909446194767952"/>
      <trkpt lat="45.959638562053442" lon="6.907373601570725"/>
      <trkpt lat="45.959261208772659" lon="6.905761510133743"/>
      <trkpt lat="45.958883939310908" lon="6.904149502515793"/>
      <trkpt lat="45.957877859473228" lon="6.902844440191984"/>
      <trkpt lat="45.95580275170505" lon="6.902844440191984"/>
      <trkpt lat="45.953538967296481" lon="6.902844440191984"/>
      <trkpt lat="45.952092669904232" lon="6.902307076379657"/>
      <trkpt lat="45.951841128990054" lon="6.901155654340982"/>
      <trkpt lat="45.951778264716268" lon="6.901078876107931"/>
      <trkpt lat="45.950394915416837" lon="6.900080926716328"/>
      <trkpt lat="45.950394915416837" lon="6.898852726444602"/>
      <trkpt lat="45.949325887486339" lon="6.898622391745448"/>
      <trkpt lat="45.948454923927784" lon="6.896165404468775"/>
      <trkpt lat="45.941915195435286" lon="6.888258587568998"/>
      <trkpt lat="45.941349249333143" lon="6.887490972876549"/>
      <trkpt lat="45.941286385059357" lon="6.887490972876549"/>
      <trkpt lat="45.940091628581285" lon="6.887951558455825"/>
      <trkpt lat="45.938456654548645" lon="6.887798001989722"/>
      <trkpt lat="45.937576303258538" lon="6.88902628608048"/>
      <trkpt lat="45.934998197481036" lon="6.88902628608048"/>
      <trkpt lat="45.934432251378894" lon="6.888949507847428"/>
      <trkpt lat="45.933237494900823" lon="6.886646579951048"/>
      <trkpt lat="45.933174546808004" lon="6.886646579951048"/>
      <trkpt lat="45.93103657476604" lon="6.88311536796391"/>
      <trkpt lat="45.93103657476604" lon="6.882961811497808"/>
      <trkpt lat="45.929841818287969" lon="6.879891268908978"/>
      <trkpt lat="45.929150143638253" lon="6.878739763051271"/>
      <trkpt lat="45.928143979981542" lon="6.876206500455737"/>
      <trkpt lat="45.927012171596289" lon="6.875131856650114"/>
      <trkpt lat="45.926509089767933" lon="6.87490152195096"/>
      <trkpt lat="45.92556587420404" lon="6.873903572559357"/>
      <trkpt lat="45.92556587420404" lon="6.873826794326305"/>
      <trkpt lat="45.924364496022463" lon="6.873136293143034"/>
      <trkpt lat="45.925119034945965" lon="6.871447423473001"/>
      <trkpt lat="45.925433440133929" lon="6.868376880884171"/>
      <trkpt lat="45.925433440133929" lon="6.868300102651119"/>
      <trkpt lat="45.92216357588768" lon="6.867148596793413"/>
      <trkpt lat="45.919270981103182" lon="6.86538303270936"/>
      <trkpt lat="45.917950496077538" lon="6.861544791609049"/>
      <trkpt lat="45.916315522044897" lon="6.85786010697484"/>
      <trkpt lat="45.916315522044897" lon="6.857552994042635"/>
      <trkpt lat="45.916378470137715" lon="6.849723039194942"/>
      <trkpt lat="45.916315522044897" lon="6.84964626096189"/>
      <trkpt lat="45.912982793524861" lon="6.846575634554029"/>
      <trkpt lat="45.912794200703502" lon="6.846959441900253"/>
      <trkpt lat="45.909106666222215" lon="6.843110304325819"/>
      <trkpt lat="45.908926958218217" lon="6.843110304325819"/>
      <trkpt lat="45.904974387958646" lon="6.835872447118163"/>
      <trkpt lat="45.902548916637897" lon="6.829731278121471"/>
      <trkpt lat="45.902369292452931" lon="6.829511923715472"/>
      <trkpt lat="45.900662485510111" lon="6.828086329624057"/>
      <trkpt lat="45.897428579628468" lon="6.821067575365305"/>
      <trkpt lat="45.896799685433507" lon="6.81536503136158"/>
      <trkpt lat="45.896799685433507" lon="6.815255312249064"/>
      <trkpt lat="45.89670991525054" lon="6.811746060848236"/>
      <trkpt lat="45.896081104874611" lon="6.809552852064371"/>
      <trkpt lat="45.895901396870613" lon="6.809443132951856"/>
      <trkpt lat="45.895757144317031" lon="6.804939536377788"/>
      <trkpt lat="45.89573023840785" lon="6.804939536377788"/>
      <trkpt lat="45.894787022843957" lon="6.802636608481407"/>
      <trkpt lat="45.894679231569171" lon="6.802439214661717"/>
      <trkpt lat="45.894652241840959" lon="6.802406273782253"/>
      <trkpt lat="45.893223881721497" lon="6.800498133525252"/>
      <trkpt lat="45.893035288900137" lon="6.800498133525252"/>
      <trkpt lat="45.891822511330247" lon="6.799412509426475"/>
      <trkpt lat="45.890070861205459" lon="6.798293944448233"/>
      <trkpt lat="45.890043871477246" lon="6.798293944448233"/>
      <trkpt lat="45.889424029737711" lon="6.79727403447032"/>
      <trkpt lat="45.889343228191137" lon="6.795036904513836"/>
      <trkpt lat="45.889289332553744" lon="6.795036904513836"/>
      <trkpt lat="45.889181541278958" lon="6.791944401338697"/>
      <trkpt lat="45.889774393290281" lon="6.789049208164215"/>
      <trkpt lat="45.890717608854175" lon="6.786285694688559"/>
      <trkpt lat="45.892496248707175" lon="6.785825109109283"/>
      <trkpt lat="45.894463565200567" lon="6.783127393573523"/>
      <trkpt lat="45.894760033115745" lon="6.781811434775591"/>
      <trkpt lat="45.89537987485528" lon="6.780659928917885"/>
      <trkpt lat="45.896634561941028" lon="6.777951568365097"/>
      <trkpt lat="45.897173518314958" lon="6.772523196414113"/>
      <trkpt lat="45.89720050804317" lon="6.772490255534649"/>
      <trkpt lat="45.897874245420098" lon="6.772292861714959"/>
      <trkpt lat="45.897982036694884" lon="6.77239160053432"/>
      <trkpt lat="45.8986287843436" lon="6.772753447294235"/>
      <trkpt lat="45.901539316400886" lon="6.774036549031735"/>
      <trkpt lat="45.904476838186383" lon="6.771338833495975"/>
      <trkpt lat="45.904476838186383" lon="6.77130589261651"/>
      <trkpt lat="45.904988888651133" lon="6.769825480878353"/>
      <trkpt lat="45.904773306101561" lon="6.768246246501803"/>
      <trkpt lat="45.905015794560313" lon="6.76670003682375"/>
      <trkpt lat="45.905069690197706" lon="6.76670003682375"/>
      <trkpt lat="45.905770417302847" lon="6.765844663605094"/>
      <trkpt lat="45.90582431294024" lon="6.765055088326335"/>
      <trkpt lat="45.90582431294024" lon="6.764989290386438"/>
      <trkpt lat="45.905366158112884" lon="6.764791896566749"/>
      <trkpt lat="45.905231377109885" lon="6.764758955687285"/>
      <trkpt lat="45.905420053750277" lon="6.763541735708714"/>
      <trkpt lat="45.905662626028061" lon="6.762488884851337"/>
      <trkpt lat="45.905662626028061" lon="6.762456027790904"/>
      <trkpt lat="45.906821424141526" lon="6.761830905452371"/>
      <trkpt lat="45.906383385881782" lon="6.762472372502089"/>
      <trkpt lat="45.906396880745888" lon="6.762472372502089"/>
      <trkpt lat="45.907178409397602" lon="6.762439431622624"/>
      <trkpt lat="45.907178409397602" lon="6.762423003092408"/>
      <trkpt lat="45.907488372176886" lon="6.762077584862709"/>
      <trkpt lat="45.908283228054643" lon="6.761699225753546"/>
      <trkpt lat="45.908296722918749" lon="6.761715654283762"/>
      <trkpt lat="45.908350618556142" lon="6.762094013392925"/>
      <trkpt lat="45.908337123692036" lon="6.762126870453358"/>
      <trkpt lat="45.907488288357854" lon="6.763179637491703"/>
      <trkpt lat="45.907676881179214" lon="6.763442829251289"/>
      <trkpt lat="45.908121541142464" lon="6.76304804161191"/>
      <trkpt lat="45.908148530870676" lon="6.763031613081694"/>
      <trkpt lat="45.908795278519392" lon="6.762768421322107"/>
      <trkpt lat="45.908808773383498" lon="6.762768421322107"/>
      <trkpt lat="45.909428615123034" lon="6.762143382802606"/>
      <trkpt lat="45.909522911533713" lon="6.762143382802606"/>
      <trkpt lat="45.909522911533713" lon="6.762159811332822"/>
      <trkpt lat="45.90944210998714" lon="6.762620396912098"/>
      <trkpt lat="45.909428615123034" lon="6.762751992791891"/>
      <trkpt lat="45.909415120258927" lon="6.7632454354316"/>
      <trkpt lat="45.909415120258927" lon="6.763278376311064"/>
      <trkpt lat="45.909657692536712" lon="6.76393635571003"/>
      <trkpt lat="45.910115847364068" lon="6.764248916879296"/>
      <trkpt lat="45.910115847364068" lon="6.764265345409513"/>
      <trkpt lat="45.909010861068964" lon="6.764873955398798"/>
      <trkpt lat="45.908970460295677" lon="6.764923324808478"/>
      <trkpt lat="45.908418009057641" lon="6.765844495967031"/>
      <trkpt lat="45.908350618556142" lon="6.767028858885169"/>
      <trkpt lat="45.908323628827929" lon="6.767045371234417"/>
      <trkpt lat="45.907892463728786" lon="6.767834946513176"/>
      <trkpt lat="45.908161941915751" lon="6.767802005633712"/>
      <trkpt lat="45.908188931643963" lon="6.767769148573279"/>
      <trkpt lat="45.908498810604215" lon="6.7673743609339"/>
      <trkpt lat="45.908552706241608" lon="6.7673743609339"/>
      <trkpt lat="45.908970460295677" lon="6.767423646524549"/>
      <trkpt lat="45.908970460295677" lon="6.767538813874126"/>
      <trkpt lat="45.90857969596982" lon="6.767867803573608"/>
      <trkpt lat="45.90857969596982" lon="6.767884232103825"/>
      <trkpt lat="45.908687487244606" lon="6.768196793273091"/>
      <trkpt lat="45.90876828879118" lon="6.768163936212659"/>
      <trkpt lat="45.909280339255929" lon="6.767588183283806"/>
      <trkpt lat="45.909293834120035" lon="6.767555242404342"/>
      <trkpt lat="45.909307328984141" lon="6.76697957329452"/>
      <trkpt lat="45.909280339255929" lon="6.766913775354624"/>
      <trkpt lat="45.909091746434569" lon="6.766403820365667"/>
      <trkpt lat="45.910385241732001" lon="6.765252314507961"/>
      <trkpt lat="45.910385241732001" lon="6.765285255387425"/>
      <trkpt lat="45.90965760871768" lon="6.766847977414727"/>
      <trkpt lat="45.909644197672606" lon="6.766847977414727"/>
      <trkpt lat="45.910088857635856" lon="6.766963060945272"/>
      <trkpt lat="45.910439137369394" lon="6.76688083447516"/>
      <trkpt lat="45.910627730190754" lon="6.76717696711421"/>
      <trkpt lat="45.910883797332644" lon="6.767242765054107"/>
      <trkpt lat="45.910978093743324" lon="6.767670409753919"/>
      <trkpt lat="45.91105897910893" lon="6.768410615622997"/>
      <trkpt lat="45.91105897910893" lon="6.768443556502461"/>
      <trkpt lat="45.910883797332644" lon="6.769249560311437"/>
      <trkpt lat="45.910910703241825" lon="6.769249560311437"/>
      <trkpt lat="45.911409258842468" lon="6.769644347950816"/>
      <trkpt lat="45.911961710080504" lon="6.770680686458945"/>
      <trkpt lat="45.912352558225393" lon="6.771404463797808"/>
      <trkpt lat="45.912339063361287" lon="6.771371606737375"/>
      <trkpt lat="45.913187982514501" lon="6.771486690267921"/>
      <trkpt lat="45.913174487650394" lon="6.771470261737704"/>
      <trkpt lat="45.913147497922182" lon="6.771832192316651"/>
      <trkpt lat="45.913147497922182" lon="6.771848620846868"/>
      <trkpt lat="45.913457460701466" lon="6.772358575835824"/>
      <trkpt lat="45.91379432938993" lon="6.772457230836153"/>
      <trkpt lat="45.914050312712789" lon="6.772342063486576"/>
      <trkpt lat="45.915060918778181" lon="6.770433923229575"/>
      <trkpt lat="45.915060918778181" lon="6.770450435578823"/>
      <trkpt lat="45.915060918778181" lon="6.770433923229575"/>
      <trkpt lat="45.915579590946436" lon="6.770351696759462"/>
      <trkpt lat="45.915768267586827" lon="6.770647829398513"/>
      <trkpt lat="45.915687466040254" lon="6.772226979956031"/>
      <trkpt lat="45.915876058861613" lon="6.772983614355326"/>
      <trkpt lat="45.915903048589826" lon="6.772983614355326"/>
      <trkpt lat="45.916954055428505" lon="6.772753363475204"/>
      <trkpt lat="45.920107159763575" lon="6.771371606737375"/>
      <trkpt lat="45.923502752557397" lon="6.771207069978118"/>
      <trkpt lat="45.925820432603359" lon="6.77051623351872"/>
      <trkpt lat="45.929296659305692" lon="6.77031883969903"/>
      <trkpt lat="45.930617228150368" lon="6.769595062360168"/>
      <trkpt lat="45.930617228150368" lon="6.769496323540807"/>
      <trkpt lat="45.931398756802082" lon="6.767719779163599"/>
      <trkpt lat="45.931641245260835" lon="6.766074830666184"/>
      <trkpt lat="45.931668234989047" lon="6.766074830666184"/>
      <trkpt lat="45.931668318808079" lon="6.762883337214589"/>
      <trkpt lat="45.931758172810078" lon="6.762773701921105"/>
      <trkpt lat="45.932162348181009" lon="6.76211572252214"/>
      <trkpt lat="45.932162348181009" lon="6.762060904875398"/>
      <trkpt lat="45.931982723996043" lon="6.760580409318209"/>
      <trkpt lat="45.931308986619115" lon="6.758003309369087"/>
      <trkpt lat="45.93157846480608" lon="6.755864834412932"/>
      <trkpt lat="45.931623391807079" lon="6.755864834412932"/>
      <trkpt lat="45.932162348181009" lon="6.752849109470844"/>
      <trkpt lat="45.932162348181009" lon="6.752794291824102"/>
      <trkpt lat="45.931937796995044" lon="6.751478333026171"/>
      <trkpt lat="45.932431910187006" lon="6.750436462461948"/>
      <trkpt lat="45.934093790128827" lon="6.7494494933635"/>
      <trkpt lat="45.935306483879685" lon="6.747091747820377"/>
      <trkpt lat="45.935306483879685" lon="6.746982028707862"/>
      <trkpt lat="45.936070075258613" lon="6.746159596368671"/>
      <trkpt lat="45.93678873963654" lon="6.743582496419549"/>
      <trkpt lat="45.937597174197435" lon="6.742924517020583"/>
      <trkpt lat="45.93907942995429" lon="6.741279568523169"/>
      <trkpt lat="45.938675170764327" lon="6.73903145827353"/>
      <trkpt lat="45.938585316762328" lon="6.738976556807756"/>
      <trkpt lat="45.9379115793854" lon="6.737057436257601"/>
      <trkpt lat="45.937597174197435" lon="6.736070467159152"/>
      <trkpt lat="45.938495546579361" lon="6.733274096623063"/>
      <trkpt lat="45.938405692577362" lon="6.733164377510548"/>
      <trkpt lat="45.93737262301147" lon="6.731903236359358"/>
      <trkpt lat="45.937013290822506" lon="6.730532459914684"/>
      <trkpt lat="45.936923436820507" lon="6.730532459914684"/>
      <trkpt lat="45.935486191883683" lon="6.730093834921718"/>
      <trkpt lat="45.934812454506755" lon="6.729655126109719"/>
      <trkpt lat="45.934902224689722" lon="6.728777876123786"/>
      <trkpt lat="45.934902224689722" lon="6.728722974658012"/>
      <trkpt lat="45.93386915512383" lon="6.728010177612305"/>
      <trkpt lat="45.934812454506755" lon="6.726145790889859"/>
      <trkpt lat="45.934902224689722" lon="6.725049102678895"/>
      <trkpt lat="45.934992078691721" lon="6.723733143880963"/>
      <trkpt lat="45.934947151690722" lon="6.723733143880963"/>
      <trkpt lat="45.93449804931879" lon="6.721649570390582"/>
      <trkpt lat="45.93449804931879" lon="6.72159475274384"/>
      <trkpt lat="45.934477346017957" lon="6.720491610467434"/>
      <trkpt lat="45.933911483734846" lon="6.720113251358271"/>
      <trkpt lat="45.933884494006634" lon="6.720096822828054"/>
      <trkpt lat="45.933695817366242" lon="6.719438843429089"/>
      <trkpt lat="45.933520719408989" lon="6.719702035188675"/>
      <trkpt lat="45.933534130454063" lon="6.719702035188675"/>
      <trkpt lat="45.934059675782919" lon="6.721725342795253"/>
      <trkpt lat="45.933749713003635" lon="6.722531346604228"/>
      <trkpt lat="45.933776702731848" lon="6.722564287483692"/>
      <trkpt lat="45.934032686054707" lon="6.723353862762451"/>
      <trkpt lat="45.933574615046382" lon="6.723288064822555"/>
      <trkpt lat="45.933493729680777" lon="6.723222266882658"/>
      <trkpt lat="45.933426339179277" lon="6.723172897472978"/>
      <trkpt lat="45.932793086394668" lon="6.722630085423589"/>
      <trkpt lat="45.932793086394668" lon="6.722613656893373"/>
      <trkpt lat="45.932793086394668" lon="6.720853541046381"/>
      <trkpt lat="45.932793086394668" lon="6.720820600166917"/>
      <trkpt lat="45.932456217706203" lon="6.721133161336184"/>
      <trkpt lat="45.932402238249779" lon="6.721215387806296"/>
      <trkpt lat="45.931863281875849" lon="6.722120130434632"/>
      <trkpt lat="45.931741995736957" lon="6.721626603975892"/>
      <trkpt lat="45.931674605235457" lon="6.721527948975563"/>
      <trkpt lat="45.931499507278204" lon="6.719998167827725"/>
      <trkpt lat="45.931486012414098" lon="6.719998167827725"/>
      <trkpt lat="45.931054847314954" lon="6.720804171636701"/>
      <trkpt lat="45.931027857586741" lon="6.720935767516494"/>
      <trkpt lat="45.931027857586741" lon="6.720968624576926"/>
      <trkpt lat="45.930893076583743" lon="6.723320921882987"/>
      <trkpt lat="45.930852675810456" lon="6.72325512394309"/>
      <trkpt lat="45.930354120209813" lon="6.722646513953805"/>
      <trkpt lat="45.929370587691665" lon="6.721725342795253"/>
      <trkpt lat="45.929316692054272" lon="6.721708914265037"/>
      <trkpt lat="45.927780540660024" lon="6.720162620767951"/>
      <trkpt lat="45.927497567608953" lon="6.720031024888158"/>
      <trkpt lat="45.927376365289092" lon="6.719652665778995"/>
      <trkpt lat="45.926203988492489" lon="6.718369564041495"/>
      <trkpt lat="45.926109692081809" lon="6.718336706981063"/>
      <trkpt lat="45.926055796444416" lon="6.718336706981063"/>
      <trkpt lat="45.924560129642487" lon="6.717201713472605"/>
      <trkpt lat="45.924533139914274" lon="6.717201713472605"/>
      <trkpt lat="45.922289472073317" lon="6.714657470583916"/>
      <trkpt lat="45.922235576435924" lon="6.714613633230329"/>
      <trkpt lat="45.921157663688064" lon="6.713495068252087"/>
      <trkpt lat="45.916400430724025" lon="6.710589397698641"/>
      <trkpt lat="45.916346535086632" lon="6.710490742698312"/>
      <trkpt lat="45.913193430751562" lon="6.708418065682054"/>
      <trkpt lat="45.913112629204988" lon="6.708418065682054"/>
      <trkpt lat="45.91157647781074" lon="6.707299500703812"/>
      <trkpt lat="45.910417679697275" lon="6.706411186605692"/>
      <trkpt lat="45.90858506038785" lon="6.705226823687553"/>
      <trkpt lat="45.906563848257065" lon="6.704174056649208"/>
      <trkpt lat="45.905917100608349" lon="6.703549018129706"/>
      <trkpt lat="45.905115539208055" lon="6.703417422249913"/>
      <trkpt lat="45.905088549479842" lon="6.703417422249913"/>
      <trkpt lat="45.904832566156983" lon="6.703549018129706"/>
      <trkpt lat="45.904765175655484" lon="6.703549018129706"/>
      <trkpt lat="45.904536098241806" lon="6.703351624310017"/>
      <trkpt lat="45.904509192332625" lon="6.703335111960769"/>
      <trkpt lat="45.904320515692234" lon="6.702858097851276"/>
      <trkpt lat="45.90484606102109" lon="6.701459912583232"/>
      <trkpt lat="45.905075054615736" lon="6.700111012905836"/>
      <trkpt lat="45.905075054615736" lon="6.70009458437562"/>
      <trkpt lat="45.90484606102109" lon="6.69989719055593"/>
      <trkpt lat="45.904468707740307" lon="6.699124043807387"/>
      <trkpt lat="45.90398364700377" lon="6.698466064408422"/>
      <trkpt lat="45.903970152139664" lon="6.698466064408422"/>
      <trkpt lat="45.903794970363379" lon="6.698498921468854"/>
      <trkpt lat="45.903808465227485" lon="6.698531862348318"/>
      <trkpt lat="45.904185734689236" lon="6.699633998796344"/>
      <trkpt lat="45.904131839051843" lon="6.699617570266128"/>
      <trkpt lat="45.903741074725986" lon="6.69945303350687"/>
      <trkpt lat="45.903700673952699" lon="6.699420176446438"/>
      <trkpt lat="45.902892155572772" lon="6.697775144129992"/>
      <trkpt lat="45.902649667114019" lon="6.698104133829474"/>
      <trkpt lat="45.903336815536022" lon="6.699107615277171"/>
      <trkpt lat="45.903336815536022" lon="6.699173413217068"/>
      <trkpt lat="45.903256013989449" lon="6.700966386124492"/>
      <trkpt lat="45.903229024261236" lon="6.701015755534172"/>
      <trkpt lat="45.902434084564447" lon="6.698663458228111"/>
      <trkpt lat="45.902474485337734" lon="6.698729256168008"/>
      <trkpt lat="45.901975929737091" lon="6.700127441436052"/>
      <trkpt lat="45.901625566184521" lon="6.700637396425009"/>
      <trkpt lat="45.901760347187519" lon="6.700966386124492"/>
      <trkpt lat="45.901746852323413" lon="6.700966386124492"/>
      <trkpt lat="45.901086609810591" lon="6.700374204665422"/>
      <trkpt lat="45.901019219309092" lon="6.70029197819531"/>
      <trkpt lat="45.900965323671699" lon="6.700209751725197"/>
      <trkpt lat="45.901100020855665" lon="6.699058245867491"/>
      <trkpt lat="45.901100020855665" lon="6.699041817337275"/>
      <trkpt lat="45.900547569617629" lon="6.700061643496156"/>
      <trkpt lat="45.899806441739202" lon="6.701048612594605"/>
      <trkpt lat="45.899483067914844" lon="6.7036806140095"/>
      <trkpt lat="45.899011502042413" lon="6.702874526381493"/>
      <trkpt lat="45.89851294644177" lon="6.701278947293758"/>
      <trkpt lat="45.898715117946267" lon="6.700242608785629"/>
      <trkpt lat="45.898405155166984" lon="6.699337866157293"/>
      <trkpt lat="45.898243468254805" lon="6.697298130020499"/>
      <trkpt lat="45.898243468254805" lon="6.697248760610819"/>
      <trkpt lat="45.897529330104589" lon="6.694567473605275"/>
      <trkpt lat="45.89736764319241" lon="6.692840298637748"/>
      <trkpt lat="45.897354148328304" lon="6.692856727167964"/>
      <trkpt lat="45.896626599133015" lon="6.691425517201424"/>
      <trkpt lat="45.895386915653944" lon="6.689928593114018"/>
      <trkpt lat="45.895467717200518" lon="6.690635941922665"/>
      <trkpt lat="45.895508117973804" lon="6.690668882802129"/>
      <trkpt lat="45.895656393840909" lon="6.692807273939252"/>
      <trkpt lat="45.895427316427231" lon="6.694731926545501"/>
      <trkpt lat="45.895292535424232" lon="6.696919687092304"/>
      <trkpt lat="45.895265629515052" lon="6.696919687092304"/>
      <trkpt lat="45.894847875460982" lon="6.698877196758986"/>
      <trkpt lat="45.894403215497732" lon="6.69891013763845"/>
      <trkpt lat="45.89463229291141" lon="6.698186360299587"/>
      <trkpt lat="45.894207833334804" lon="6.694616759195924"/>
      <trkpt lat="45.894207833334804" lon="6.694342587143183"/>
      <trkpt lat="45.893893428146839" lon="6.69275245629251"/>
      <trkpt lat="45.893668876960874" lon="6.692697638645768"/>
      <trkpt lat="45.893399398773909" lon="6.692642820999026"/>
      <trkpt lat="45.893399398773909" lon="6.692423466593027"/>
      <trkpt lat="45.893174847587943" lon="6.690010819584131"/>
      <trkpt lat="45.893174847587943" lon="6.689956001937389"/>
      <trkpt lat="45.891737518832088" lon="6.686611287295818"/>
      <trkpt lat="45.891108708456159" lon="6.68540496379137"/>
      <trkpt lat="45.891108708456159" lon="6.685185609385371"/>
    </trkseg>
  </trk>

</gpx>
